<?xml version="1.0" standalone="no"?>
<!DOCTYPE svg PUBLIC "-//W3C//DTD SVG 1.1//EN" "http://www.w3.org/Graphics/SVG/1.1/DTD/svg11.dtd" >
<!--
2020-2-3: Created with FontForge (http://fontforge.org)
-->
<svg xmlns="http://www.w3.org/2000/svg" xmlns:xlink="http://www.w3.org/1999/xlink" version="1.1">
<metadata>
Created by FontForge 20170731 at Mon Feb  3 00:56:58 2020
 By root

</metadata>
<defs>
<font id="Flaticon" horiz-adv-x="512" >
  <font-face 
    font-family="Flaticon"
    font-weight="400"
    font-stretch="normal"
    units-per-em="512"
    panose-1="2 0 5 3 0 0 0 0 0 0"
    ascent="448"
    descent="-64"
    bbox="-32 -64.002 668.16 449.067"
    underline-thickness="25.6"
    underline-position="-51.2"
    unicode-range="U+0020-F113"
  />
    <missing-glyph />
    <glyph glyph-name="space" unicode=" " horiz-adv-x="200" 
 />
    <glyph glyph-name="014-user" unicode="&#xf10d;" 
d="M256 448c132.233 -0.0419922 242.675 -100.787 254.833 -232.463c12.1582 -131.675 -77.9707 -250.938 -207.958 -275.195l-2.6875 -0.475586c-6.99121 -1.2207 -14.0371 -2.19531 -21.1455 -2.83301c-7.64648 -0.6875 -15.3291 -1.0332 -23.042 -1.0332
c-141.384 0 -256 114.616 -256 256s114.616 256 256 256zM235.434 -46.0293c6.8125 -0.586914 13.6953 -0.845703 20.6084 -0.845703c6.91211 0 13.7412 0.316406 20.5664 0.904297h0.604492c6.6416 0.591797 13.2373 1.47949 19.7744 2.62109
c0.367188 0.0576172 0.733398 0.103516 1.10059 0.170898c6.3916 1.14551 12.7119 2.57031 18.9746 4.22461l1.4707 0.366211c6.13379 1.66309 12.1914 3.60059 18.167 5.74219c0.537109 0.204102 1.125 0.391602 1.70801 0.608398
c5.87109 2.1582 11.6455 4.57031 17.3291 7.19141c0.650391 0.275391 1.2959 0.554688 1.9375 0.854492c5.5957 2.6123 11.084 5.5127 16.4795 8.58301c0.662109 0.383789 1.3457 0.75 2.0127 1.1377c5.32422 3.11621 10.5244 6.43359 15.5996 9.95801
c0.662109 0.458984 1.33789 0.904297 2.00391 1.37109c5.0293 3.55859 9.92578 7.3252 14.6963 11.3086l1.13281 0.945312v71.9541c-0.0625 51.8174 -42.0498 93.8047 -93.8662 93.8672h-119.467c-51.8164 -0.0625 -93.8037 -42.0498 -93.8662 -93.8672v-71.9453
l1.28711 -1.125c4.67871 -3.88379 9.4834 -7.5957 14.4121 -11.0918c0.754883 -0.529297 1.52148 -1.04199 2.2793 -1.57129c5.0166 -3.45801 10.1299 -6.7334 15.3623 -9.78711c0.75 -0.420898 1.50879 -0.845703 2.25879 -1.27051
c5.31641 -3.03418 10.7373 -5.91699 16.2666 -8.47559c0.700195 -0.333008 1.40039 -0.632812 2.09961 -0.945312c5.6377 -2.5957 11.3633 -4.99609 17.1924 -7.1377c0.616211 -0.229492 1.2373 -0.424805 1.85352 -0.645508
c5.94629 -2.13379 11.9795 -4.05469 18.0791 -5.70898l1.5127 -0.387695c6.25488 -1.65332 12.5713 -3.07031 18.9541 -4.21191c0.367188 -0.0712891 0.742188 -0.112305 1.11719 -0.179688c6.5293 -1.13672 13.1162 -2.02441 19.7539 -2.6123h0.604492zM426.667 24.9336
v0.0078125c91.9082 93.8047 90.8828 244.2 -2.29199 336.746c-93.1748 92.542 -243.575 92.542 -336.75 0c-93.1748 -92.5459 -94.2002 -242.941 -2.29199 -336.746v56.125c0.0712891 61.2373 49.6963 110.862 110.934 110.934h119.467
c61.2373 -0.0712891 110.862 -49.6963 110.934 -110.934v-56.1328zM426.667 24.9336zM256 379.733c47.1084 -0.0498047 85.2832 -38.2246 85.333 -85.333c0 -47.1299 -38.2041 -85.334 -85.333 -85.334s-85.333 38.2041 -85.333 85.334
c0 47.1289 38.2041 85.333 85.333 85.333zM256 226.134c37.6836 0.0410156 68.2246 30.583 68.2666 68.2666c0 37.7041 -30.5625 68.2666 -68.2666 68.2666s-68.2666 -30.5625 -68.2666 -68.2666s30.5625 -68.2666 68.2666 -68.2666zM256 226.134z" />
    <glyph glyph-name="017-lotion" unicode="&#xf110;" 
d="M421.161 315.871c22.7666 0 41.29 -18.5244 41.29 -41.29v-297.291c0 -22.7656 -18.5234 -41.29 -41.29 -41.29h-148.645c-22.7666 0 -41.291 18.5244 -41.291 41.29v297.291c0 22.7656 18.5244 41.29 41.291 41.29h16.5156v33.0322h33.0322v33.0322h-8.25781
c-18.2178 0 -33.0322 14.8145 -33.0322 33.0322s14.8145 33.0322 33.0322 33.0322h18.4639l33.0322 -16.5166h80.6328v-49.5479h-74.3223v-33.0322h33.0322v-33.0322h16.5156zM297.29 414.968c0 -9.10938 7.40723 -16.5166 16.5166 -16.5166h115.612v16.5166h-68.0117
l-33.0322 16.5156h-14.5684c-9.10938 0 -16.5166 -7.40723 -16.5166 -16.5156zM338.581 381.936v-33.0322h16.5156v33.0322h-16.5156zM305.549 332.387v-16.5156h82.5801v16.5156h-82.5801zM272.517 299.354c-13.6582 0 -24.7744 -11.1162 -24.7744 -24.7734v-33.0322
h198.193v33.0322c0 13.6572 -11.1172 24.7734 -24.7744 24.7734h-148.645zM445.936 225.032h-198.193v-206.451h198.193v206.451zM421.161 -47.4834c13.6572 0 24.7744 11.1162 24.7744 24.7734v24.7744h-198.193v-24.7744c0 -13.6572 11.1162 -24.7734 24.7744 -24.7734
h148.645zM421.161 -47.4834zM289.032 51.6133c-13.6572 0 -24.7744 11.1162 -24.7744 24.7734s11.1172 24.7744 24.7744 24.7744v7.69727c0 18.7871 11.2744 35.4355 28.7139 42.4033c8.67773 3.45996 15.2012 10.9443 17.4639 20l6.45898 25.8428l31.8193 -21.209
c17.4395 -11.6172 28.5322 -30.2539 30.7012 -50.8193c16.75 -3.59277 29.3594 -18.4873 29.3594 -36.3018c0 -20.4883 -16.6738 -37.1611 -37.1621 -37.1611h-107.354zM289.032 84.6455c-4.54883 0 -8.25781 -3.70215 -8.25781 -8.25879
c0 -4.55566 3.70898 -8.25781 8.25781 -8.25781h107.354c11.3799 0 20.6455 9.25781 20.6455 20.6455c0 11.3867 -9.26562 20.6445 -20.6455 20.6445h-41.29v16.5166h32.3145c-2.27832 14.6729 -10.5117 27.8467 -23.0889 36.2295l-12.3145 8.20605l-0.774414 -3.09668
c-3.54395 -14.1934 -13.7656 -25.9111 -27.3506 -31.3389c-11.1328 -4.45215 -18.334 -15.0811 -18.334 -27.0771v-7.69727h33.0322v-16.5156h-49.5488zM289.032 84.6455zM181.678 348.068c18.8184 -3.83887 33.0322 -20.5195 33.0322 -40.4551v-330.323
c0 -22.7656 -18.5244 -41.29 -41.291 -41.29h-132.129c-22.7656 0 -41.29 18.5244 -41.29 41.29v330.323c0 19.9355 14.2139 36.6162 33.0322 40.4551v33.8672h24.7744v49.5479c0 9.10938 7.40723 16.5166 16.5156 16.5166h66.0645
c9.10938 0 16.5166 -7.40723 16.5166 -16.5166v-49.5479h24.7744v-33.8672zM165.161 348.903v16.5156h-16.5156v-16.5156h16.5156zM99.0967 365.419h-16.5156v-16.5156h16.5156v16.5156zM115.613 365.419v-16.5156h16.5156v16.5156h-16.5156zM74.3223 431.483v-49.5479
h66.0645v49.5479h-66.0645zM66.0645 365.419h-16.5156v-16.5156h16.5156v16.5156zM41.29 332.387c-13.6572 0 -24.7734 -11.1162 -24.7734 -24.7734v-49.5488h181.677v49.5488c0 13.6572 -11.1172 24.7734 -24.7744 24.7734h-132.129zM198.193 241.549h-181.677v-189.936
h181.677v189.936zM173.419 -47.4834c13.6572 0 24.7744 11.1162 24.7744 24.7734v57.8066h-181.677v-57.8066c0 -13.6572 11.1162 -24.7734 24.7734 -24.7734h132.129zM173.419 -47.4834zM99.0967 414.968h16.5166v-16.5166h-16.5166v16.5166zM99.0967 414.968z
M106.149 68.1289c-26.6572 0 -48.3428 21.6855 -48.3428 48.3428c0 7.47168 1.76562 14.9473 5.10449 21.6211l44.4434 88.8867l44.4443 -88.8867c3.33789 -6.67383 5.10449 -14.1572 5.10449 -21.6211c0 -26.6572 -21.6855 -48.3428 -48.3428 -48.3428h-2.41113z
M77.6855 130.71c-2.19727 -4.39551 -3.36328 -9.32324 -3.36328 -14.2383c0 -17.5479 14.2783 -31.8262 31.8271 -31.8262h2.41113c17.5479 0 31.8262 14.2783 31.8262 31.8262c0 4.91504 -1.16504 9.84277 -3.3623 14.2383l-29.6699 59.3428zM77.6855 130.71z
M132.129 117.678c0 -13.6572 -11.1172 -24.7744 -24.7744 -24.7744v16.5156c4.54883 0 8.25879 3.70215 8.25879 8.25879h16.5156zM132.129 117.678z" />
    <glyph glyph-name="009-settings" unicode="&#xf108;" horiz-adv-x="511" 
d="M424 265.067c13.2549 0 24 -10.7471 24 -24v-64c0 -13.2549 -10.7451 -24 -24 -24h-41.7627c-3.26758 0.0322266 -6.21289 -1.96777 -7.38965 -5.01758c-1.67285 -4.64453 -3.58984 -9.30273 -5.67285 -13.8252c-1.33203 -2.98926 -0.674805 -6.50195 1.66797 -8.7998
l29.502 -29.4873c9.37305 -9.37012 9.37305 -24.5625 0 -33.9326l-45.2646 -45.2676c-9.49805 -9.06934 -24.4473 -9.06934 -33.9424 0l-29.4951 29.4873c-2.28516 2.33496 -5.78027 3 -8.7627 1.68262c-4.42969 -2.05762 -9.08496 -3.96973 -13.8223 -5.68262
c-3.07031 -1.16211 -5.08789 -4.11426 -5.05762 -7.39453v-41.7627c0 -13.2549 -10.7451 -24 -24 -24h-64c-13.2529 0 -24 10.7451 -24 24v41.7627c0.0322266 3.28027 -1.99219 6.2373 -5.0625 7.39453c-4.7373 1.68262 -9.39258 3.625 -13.8252 5.68262
c-2.9873 1.31543 -6.47461 0.647461 -8.7627 -1.68262l-29.502 -29.4941c-9.49805 -9.0625 -24.4375 -9.0625 -33.9375 0l-45.2529 45.2568c-9.37207 9.37305 -9.37207 24.5625 0 33.9355l29.5127 29.4619c2.33008 2.30273 2.99219 5.80762 1.66211 8.80273
c-2.07715 4.51953 -3.98926 9.1748 -5.67188 13.832c-1.16504 3.0625 -4.12305 5.07812 -7.39746 5.04785h-41.7627c-13.2529 0 -24 10.7451 -24 24v64c0 13.2529 10.7471 24 24 24h41.7627c3.26953 -0.0351562 6.21973 1.96777 7.39258 5.02539
c1.66992 4.64453 3.58984 9.30176 5.66992 13.8193c1.33203 2.99512 0.669922 6.5 -1.66504 8.80566l-29.5029 29.4873c-9.37207 9.36719 -9.37207 24.5625 0 33.9297l45.2656 45.2598c9.49707 9.07324 24.4473 9.07324 33.9395 0l29.498 -29.4873
c2.28418 -2.33496 5.77734 -3.00195 8.76172 -1.68262c4.47754 2.07324 9.13574 3.98535 13.833 5.68262c3.0625 1.16504 5.07715 4.12305 5.04492 7.39746v41.7627c0 13.2529 10.7471 24 24 24h64c13.2549 0 24 -10.7471 24 -24v-41.7627
c-0.0302734 -3.28223 1.9873 -6.23438 5.05762 -7.39746c4.6875 -1.68262 9.3418 -3.60938 13.8223 -5.68262c2.98242 -1.31934 6.47754 -0.652344 8.7627 1.68262l29.502 29.498c9.49805 9.0625 24.4375 9.0625 33.9355 0l45.2646 -45.2256
c9.37305 -9.375 9.37305 -24.5674 0 -33.9375l-29.5127 -29.4951c-2.33691 -2.2998 -3 -5.80957 -1.66211 -8.80176c2.07715 -4.52051 3.99023 -9.17578 5.67285 -13.833c1.16504 -3.0625 4.11914 -5.07715 7.39453 -5.04492h41.7627zM432 177.067v64
c0 4.41797 -3.58008 8 -8 8h-41.7627c-10.0049 -0.0175781 -18.9678 6.21289 -22.4375 15.6006c-1.53223 4.23926 -3.26953 8.4668 -5.16699 12.582c-4.10254 9.07227 -2.16016 19.7373 4.88672 26.7803l29.498 29.4922c1.50195 1.5 2.34473 3.53711 2.34473 5.66211
c0 2.12012 -0.842773 4.16016 -2.34473 5.66016l-45.248 45.248c-3.16211 3.01758 -8.14453 3.01758 -11.3018 0l-29.5127 -29.498c-7.03223 -7.05762 -17.708 -9.00195 -26.7803 -4.8877c-4.06738 1.87305 -8.30273 3.61523 -12.5645 5.16016
c-9.39258 3.46484 -15.6279 12.4258 -15.6104 22.4375v41.7627c0 4.41797 -3.58008 8 -8 8h-64c-4.41797 0 -8 -3.58203 -8 -8v-41.7627c0.0195312 -10.0068 -6.20215 -18.9619 -15.5928 -22.4375c-4.26953 -1.54492 -8.50195 -3.28711 -12.5752 -5.16016
c-9.06934 -4.12695 -19.75 -2.1748 -26.7744 4.8877l-29.5078 29.4873c-3.16211 3.02344 -8.14258 3.02344 -11.3125 0l-45.252 -45.2471c-1.50293 -1.50293 -2.34766 -3.53711 -2.34766 -5.66016c0 -2.125 0.844727 -4.15723 2.34766 -5.65723l29.4971 -29.4873
c7.04785 -7.04297 8.99023 -17.708 4.8877 -26.7803c-1.89746 -4.11523 -3.63477 -8.34277 -5.16992 -12.5752c-3.46484 -9.39258 -12.4258 -15.627 -22.4375 -15.6074h-41.7627c-4.41797 0 -8 -3.58203 -8 -8v-64c0 -4.41992 3.58203 -8 8 -8h41.7627
c10.0068 0.0146484 18.9697 -6.21191 22.4375 -15.5996c1.53516 -4.24316 3.27246 -8.4707 5.16992 -12.585c4.10254 -9.07324 2.16016 -19.7383 -4.8877 -26.7773l-29.4971 -29.4883c-1.50293 -1.5 -2.34766 -3.53516 -2.34766 -5.66016
c0 -2.12207 0.844727 -4.15723 2.34766 -5.65918l45.2471 -45.293c3.16211 -3.02441 8.14258 -3.02441 11.3027 0l29.5127 29.4951c4.5 4.5 10.6074 7.03027 16.9697 7.03223c3.3877 0.00292969 6.73242 -0.727539 9.80762 -2.14746
c4.03223 -1.8623 8.26758 -3.55469 12.5742 -5.16016c9.38086 -3.46484 15.6055 -12.4023 15.6006 -22.3945v-41.7627c0 -4.41992 3.58203 -8 8 -8h64c4.41992 0 8 3.58008 8 8v41.7627c-0.0146484 10.0146 6.23242 18.9795 15.6328 22.4375
c4.3125 1.5625 8.57422 3.29492 12.5742 5.15723c9.07324 4.12305 19.748 2.17285 26.7783 -4.8877l29.502 -29.4873c3.16211 -3.03027 8.15039 -3.03027 11.3125 0l45.2578 45.248c1.50195 1.50195 2.34766 3.53711 2.34766 5.65918
c0 2.125 -0.845703 4.16016 -2.34766 5.66016l-29.498 29.4883c-7.04199 7.03906 -8.99219 17.7041 -4.88672 26.7773c1.89453 4.11426 3.63477 8.3418 5.16992 12.5742c3.45703 9.38574 12.4023 15.6104 22.3945 15.6104h41.7627c4.41992 0 8 3.58008 8 8zM432 177.067z
M208 305.067c52.9971 -0.0595703 95.9424 -43.0049 96 -96c0 -53.0195 -42.9805 -96 -96 -96c-53.0176 0 -96 42.9805 -96 96c0 53.0176 42.9824 96 96 96zM208 129.067c44.1621 0.0449219 79.9551 35.8379 80 80c0 44.1826 -35.8154 80 -80 80
c-44.1826 0 -80 -35.8174 -80 -80c0 -44.1846 35.8174 -80 80 -80zM208 129.067zM208 249.067c22.082 -0.0302734 39.9727 -17.9199 40 -40c0 -22.0928 -17.9072 -40 -40 -40c-22.0898 0 -40 17.9072 -40 40c0 22.0898 17.9102 40 40 40zM208 185.067
c13.2549 0 24 10.7451 24 24c0 13.2529 -10.7451 24 -24 24c-13.2529 0 -24 -10.7471 -24 -24c0 -13.2549 10.7471 -24 24 -24zM208 185.067z" />
    <glyph glyph-name="007-razor-1" unicode="&#xf106;" 
d="M507.834 385.503c3.30469 -2.03418 4.875 -6.00098 3.86035 -9.74512c-9.18945 -33.8838 -40.127 -57.5488 -75.2354 -57.5488h-28.8184c-37.3506 -129.158 -104.885 -248.772 -196.888 -348.083c-7.76758 -8.38379 -18.7764 -13.1836 -30.2236 -13.1836h-0.15332
c-11.5518 0.0439453 -22.6426 4.96191 -30.4277 13.4922l-18.3018 20.0547c-14.5605 15.9551 -14.4883 39.9902 0.168945 55.9092c72.2695 78.4854 127.116 171.412 160.851 271.759c-13.2666 -0.535156 -25.7227 -5.88086 -35.2764 -15.208
c-13.3711 -13.0527 -31.0244 -20.2412 -49.709 -20.2412h-186.73c-3.21289 0 -6.16699 1.76074 -7.69824 4.58496l-0.72168 1.33496c-16.9814 31.373 -16.6875 68.6699 0.789062 99.7705c1.54883 2.75781 4.46582 4.46484 7.62988 4.46484h259.142
c4.83496 0 8.75293 -3.91895 8.75293 -8.75293s-3.91797 -8.75293 -8.75293 -8.75293h-253.853c-11.6211 -23.791 -11.6367 -51.2979 0.0136719 -75.1455h181.427c14.0889 0 27.3975 5.41992 37.4795 15.2617c13.3721 13.0527 31.0254 20.2402 49.71 20.2402h3.46484
c4.98145 16.1191 9.43457 32.4111 13.3174 48.8594c6.53027 27.6592 32.5967 45.7158 60.6514 42.0039c15.3643 -2.03418 29.2246 -10.5186 38.0283 -23.2773c5.96387 -8.64258 9.24902 -18.7588 9.625 -29.0596c15.1904 -3.03516 30.9854 1.4209 42.4287 12.2979
l12.3203 11.71c2.87695 2.7373 7.2373 3.19238 10.6172 1.11035zM402.328 368.776c0.862305 8.66113 -1.33887 17.2373 -6.40625 24.584c-6.00098 8.69434 -15.4453 14.4785 -25.918 15.8643c-1.66699 0.22168 -3.32324 0.328125 -4.95996 0.328125
c-17.1367 0 -32.2891 -11.7715 -36.3545 -29.001c-30.3623 -128.609 -93.9863 -248.259 -183.996 -346.011c-8.46094 -9.18848 -8.51074 -23.0547 -0.116211 -32.2529l18.3018 -20.0537c4.55859 -4.99512 10.7969 -7.76172 17.5625 -7.78711h0.0927734
c6.68164 -0.000976562 12.8496 2.6875 17.377 7.57422c99.7578 107.682 170.164 239.712 203.605 381.819c0.359375 1.5332 0.610352 3.07031 0.777344 4.60547c0.0117188 0.111328 0.0195312 0.219727 0.0341797 0.330078zM436.46 335.713
c25.0527 0 47.3672 15.541 56.3213 38.498l-10.8984 6.70703l-7.4375 -7.06934c-15.2939 -14.5361 -36.2871 -20.6719 -56.6201 -17.0244c-1.68848 -7.06055 -3.4668 -14.0996 -5.33398 -21.1113h23.9688zM155.215 18.5537c0 5.37988 4.36133 9.74121 9.74121 9.74121
s9.74023 -4.36133 9.74023 -9.74121s-4.36035 -9.74121 -9.74023 -9.74121s-9.74121 4.36133 -9.74121 9.74121z" />
    <glyph glyph-name="016-brush" unicode="&#xf10f;" 
d="M417.851 386.56c1.70605 -10.2393 -0.853516 -20.4795 -6.8291 -28.1592c-5.19434 -5.84375 -11.8711 -10.1973 -19.2773 -11.9492c20.8135 -67.9033 2.83398 -141.882 -48.1357 -192.852l-12.4336 -12.7998h18.4082c14.5068 0 25.5996 -11.0928 25.5996 -25.5996
s-11.0928 -25.5996 -25.5996 -25.5996c-1.70703 0 -2.56055 -0.853516 -2.56055 -1.70703c0 -0.852539 -0.852539 -1.70703 0 -2.55957c7.67969 -14.5068 11.0928 -30.7197 11.0928 -46.9336s-4.26562 -32.4268 -11.0928 -46.9336
c-0.852539 -0.852539 0 -1.70605 0 -2.55957s0.853516 -1.70703 2.56055 -1.70703c14.5068 0 25.5996 -11.0928 25.5996 -25.5996s-11.9473 -25.5996 -25.5996 -25.5996h-187.733c-14.5068 0 -25.6006 11.0928 -25.6006 25.5996s11.0938 25.5996 25.6006 25.5996
c1.70605 0 2.55957 0.854492 2.55957 1.70703c0 0.853516 0.852539 1.70703 0 2.55957c-7.67969 14.5068 -11.0928 30.7197 -11.0928 46.9336s4.26562 32.4268 11.0928 46.9336c0.852539 0.852539 0 1.70605 0 2.55957c0 0.854492 -0.853516 1.70703 -2.55957 1.70703
c-14.5068 0 -25.6006 11.0928 -25.6006 25.5996s11.0938 25.5996 25.6006 25.5996h17.8994l-17.0459 17.9199c-47.501 50.0469 -63.7881 122.013 -43.8662 188.244c-11.9912 3.40234 -21.6904 12.8984 -24.3994 25.0889c-3.41406 15.3604 4.26562 30.7197 17.9189 37.5469
c5.97363 22.1865 25.5996 37.5469 49.4941 37.5469c17.0664 0 33.2793 -8.5332 42.666 -23.04c0.853516 -0.853516 0.853516 -0.853516 1.70703 -0.853516c13.6533 8.53418 30.7197 9.3877 44.373 1.70703h1.70703c7.67969 13.6533 22.1865 23.04 37.5469 23.04
c18.7734 0 34.9863 -11.9473 40.96 -29.8662c0.853516 -2.56055 3.41309 -4.26758 5.97363 -4.26758h46.0801c17.0664 0 31.5732 -11.0928 34.9863 -27.3066zM349.584 123.733h-34.9873h-118.612h-34.1328c-5.12012 0 -8.5332 -3.41309 -8.5332 -8.5332
c0 -5.11914 3.41309 -8.53223 8.5332 -8.53223c6.82617 0 13.6533 -3.41406 17.0664 -9.38672c3.41309 -5.97461 4.26562 -13.6543 0.852539 -19.627c-5.97363 -11.9473 -9.38672 -25.5996 -9.38672 -39.2539c0 -13.6533 3.41406 -27.3066 9.38672 -39.2529
c3.41406 -5.97363 2.56055 -13.6543 -0.852539 -19.627c-3.41309 -5.97363 -10.2402 -9.38672 -17.0664 -9.38672c-5.12012 0 -8.5332 -3.41309 -8.5332 -8.5332s3.41309 -8.5332 8.5332 -8.5332h187.732c5.11914 0 8.53223 3.41309 8.53223 8.5332
s-3.41309 8.5332 -8.53223 8.5332c-6.82715 0 -13.6543 3.41406 -17.0674 9.38672s-4.26562 13.6533 -0.852539 19.627c5.97363 11.9463 9.38672 25.5996 9.38672 39.2529c0 13.6543 -3.41406 27.3066 -9.38672 39.2539c-3.41406 5.97266 -2.56055 13.6523 0.852539 19.627
c3.41309 5.97363 10.2402 9.38672 17.0674 9.38672c5.11914 0 8.53223 3.41309 8.53223 8.53223c0 5.12012 -3.41309 8.5332 -8.53223 8.5332zM332.517 165.547c46.9336 46.9336 63.1475 116.906 42.666 180.054h-7.68066v-38.4004
c0 -12.7998 -5.97266 -25.5996 -15.3594 -34.9863c-2.94727 -2.21191 -5.96777 -4.12891 -9.05664 -5.75391c-8.49902 -4.92773 -18.0674 -7.46973 -27.6357 -6.19336h-0.853516c-23.8936 2.55957 -41.8135 23.8936 -41.8135 48.6406v36.6934h-136.532l-0.853516 -2.56055
c-18.7734 -60.5869 -3.41406 -126.293 40.1064 -172.373l28.1592 -29.8672h104.107zM396.517 368.64c3.41406 4.26758 4.26758 9.3877 3.41504 14.5049c-1.70605 7.68164 -9.38672 13.6543 -17.9199 13.6543h-46.0801c-10.2393 0 -18.7734 6.82715 -22.1865 16.2139
c-3.41309 10.2393 -13.6543 17.9199 -24.7471 17.9199c-9.38672 0 -17.9189 -5.12109 -22.1865 -13.6543c-2.55957 -4.26562 -5.97266 -6.82617 -11.0928 -8.5332c-5.12012 -1.70508 -10.2393 -0.852539 -14.5068 1.70703
c-8.53418 4.26758 -18.7734 4.26758 -26.4531 -0.852539c-4.26758 -2.55957 -8.53418 -3.41309 -13.6543 -2.55957c-5.12012 0.852539 -9.38672 4.26562 -12.7998 8.53223c-5.12012 9.38672 -15.3604 15.3604 -26.4531 15.3604
c-16.2129 0 -30.7197 -11.9463 -33.2803 -28.1602l-1.70703 -5.12012l-4.2666 -1.70703c-7.67969 -2.55957 -13.6533 -10.2393 -11.9473 -20.4795c1.35254 -6.08594 6.46094 -11.0879 12.7686 -12.9062l0.03125 0.106445h165.548v-0.852539h0.853516v-53.7598
c0 -8.8457 3.56152 -16.9248 9.14941 -22.7227c4.53027 -4.35547 10.2549 -7.26758 16.4502 -7.99707c8.5332 -0.852539 17.0664 1.70703 23.04 7.68066c5.97266 5.97266 10.2393 13.6533 10.2393 22.1865v55.4658h0.853516h34.1328
c5.12012 0 10.2402 2.56055 12.7998 5.97266zM215.61 193.706l20.4795 -22.1865c3.41309 -3.41406 3.41309 -8.5332 0 -11.9463c-2.55957 -0.854492 -4.26562 -1.70703 -5.97266 -1.70703c-2.55957 0 -4.26562 0.852539 -5.97266 2.55957l-21.334 22.1865
c-34.9863 37.5469 -49.4932 89.5996 -40.1064 139.094c0.852539 4.2666 5.12012 7.67969 10.2402 6.82617c4.2666 -0.852539 7.67969 -5.11914 6.82617 -10.2393c-8.5332 -44.374 4.2666 -91.3066 35.8398 -124.587zM204.518 81.0674
c-5.12012 0 -8.53418 3.41211 -8.5332 8.53223c0 5.12012 3.41309 8.5332 8.5332 8.5332h102.399c5.12012 0 8.5332 -3.41309 8.5332 -8.5332s-4.26562 -8.53223 -8.5332 -8.53223h-102.399zM306.917 64c5.12012 0 8.5332 -3.41309 8.5332 -8.53223
c0 -5.12012 -4.26562 -8.5332 -8.5332 -8.5332h-102.399c-5.12012 0 -8.5332 3.41309 -8.5332 8.5332c0 5.11914 3.41309 8.53223 8.5332 8.53223h102.399zM306.917 29.8672c5.12012 0 8.53418 -3.41309 8.5332 -8.5332c0 -5.12012 -4.26562 -8.5332 -8.5332 -8.5332
h-102.399c-5.12012 0 -8.5332 3.41309 -8.5332 8.5332s3.41309 8.5332 8.5332 8.5332h102.399zM306.917 -4.26562c5.12012 0 8.53418 -3.41406 8.5332 -8.5332c0 -5.12012 -4.26562 -8.5332 -8.5332 -8.5332h-102.399c-5.12012 0 -8.5332 3.41309 -8.5332 8.5332
s3.41309 8.5332 8.5332 8.5332h102.399z" />
    <glyph glyph-name="018-line" unicode="&#xf111;" 
d="M495.372 308.055l0.638672 -126.152c0.0478516 -9.48438 -7.60254 -17.2109 -17.0859 -17.2568h-0.0869141c-9.44434 0 -17.123 7.63086 -17.1689 17.085l-0.633789 126.149c0.00683594 0.149414 0.0107422 0.291016 0.0107422 0.433594
c-0.00195312 1.98535 -1.61523 3.59668 -3.60059 3.59668c-1.98633 0 -3.59766 -1.61133 -3.59766 -3.59863c0.00878906 -172.88 0.373047 -16.3457 0.373047 -289.082c0 -11.3799 -9.22461 -20.6055 -20.6055 -20.6055c-11.3799 0 -20.6055 9.22559 -20.6055 20.6055
v164.699h-8.89746v-164.699c0 -11.3799 -9.22656 -20.6055 -20.6055 -20.6055s-20.6055 9.22559 -20.6055 20.6055v106.948c18.4727 3.92188 32.6025 20.3975 32.501 40.4248l-0.696289 138.618c-0.0839844 16.5088 -6.21387 31.6182 -16.2568 43.2637h30.123h0.147461
h46.0186c22.292 0 40.5205 -18.1367 40.6338 -40.4297zM408.79 359.827c-19.5752 0 -35.5869 15.875 -35.5889 35.5889c0 19.6543 15.9336 35.5879 35.5889 35.5879s35.5879 -15.9336 35.5879 -35.5879c0 -19.6816 -15.9873 -35.5889 -35.5879 -35.5889zM373.142 166.491
c0.0527344 -10.4199 -8.35156 -18.9102 -18.7734 -18.9639c-0.0322266 0 -0.0644531 0 -0.0976562 0.00195312c-10.377 0 -18.8125 8.38477 -18.8652 18.7734l-0.697266 138.617v0.105469c0 2.18164 -1.76855 3.94824 -3.9502 3.94824
c-2.18066 -0.000976562 -3.94824 -1.76855 -3.94824 -3.94922c0.00878906 -189.378 0.411133 -17.7822 0.411133 -317.286c0 -12.5049 -10.1357 -22.6406 -22.6406 -22.6406c-12.5059 0 -22.6416 10.1377 -22.6416 22.6406v180.979h-9.77637v-180.977
c0 -12.5049 -10.1367 -22.6406 -22.6406 -22.6406s-22.6416 10.1367 -22.6416 22.6406v130.255c11.0918 7.74707 18.3369 20.626 18.2637 35.1484l-0.75 149.379c-0.0908203 18.0703 -7.05762 34.5645 -18.4004 47c2.0752 0.0205078 98.1152 0.0136719 101.802 0.0136719
c24.4961 0 44.5264 -19.9297 44.6504 -44.4268zM174.021 350.286c26.5234 0 47.9834 -21.6367 48.1172 -47.8799l0.75 -149.379c0.0566406 -11.2529 -9.02441 -20.3779 -20.2305 -20.4346h-0.104492c-11.1855 0 -20.2754 9.03613 -20.3311 20.2305l-0.751953 149.379
c-0.0117188 2.34766 -1.91895 4.24121 -4.26465 4.23438s-4.24512 -1.91113 -4.24316 -4.25586c0.0224609 -91.3486 0.441406 -254.524 0.441406 -341.783c0 -13.4756 -10.9229 -24.3994 -24.3994 -24.3994c-13.5371 0 -24.3994 10.9834 -24.3994 24.3994v195.03h-10.5342
v-195.028c0 -13.4043 -10.8652 -24.3994 -24.3994 -24.3994c-13.4766 0 -24.3994 10.9248 -24.3994 24.3994l-0.0107422 341.786c0 2.16211 -1.75098 3.9209 -3.91504 3.92578s-3.92578 -1.74121 -3.93652 -3.90527v-0.00195312l-0.75 -149.379
c-0.0566406 -11.1943 -9.14941 -20.2305 -20.3311 -20.2305h-0.104492c-0.163086 0.00195312 -0.322266 0.0234375 -0.484375 0.0292969c-11.1074 0.321289 -19.8008 9.44238 -19.7461 20.4043l0.75 149.38c0.132812 26.4004 21.7178 47.8779 48.1172 47.8779h109.16z
M119.61 363.719c-23.1748 0 -42.1406 18.8047 -42.1406 42.1387c0 23.4756 19.0918 42.1426 42.1406 42.1426c23.3232 0 42.1426 -18.9395 42.1406 -42.1406c0 -23.2227 -18.8574 -42.1406 -42.1406 -42.1406zM277.308 362c-21.5713 0 -39.1055 17.5146 -39.1055 39.1045
c0 21.5977 17.5088 39.1055 39.1055 39.1055c21.5986 0 39.1064 -17.5068 39.1045 -39.1055c0 -21.6152 -17.5615 -39.1045 -39.1045 -39.1045z" />
    <glyph glyph-name="008-queue" unicode="&#xf107;" 
d="M96 42.667c29.4189 0 53.333 -23.915 53.334 -53.334c0 -5.8877 -4.7793 -10.667 -10.667 -10.667h-128c-5.8877 0 -10.667 4.7793 -10.667 10.667c0 29.4189 23.915 53.334 53.333 53.334h42.667zM23.168 0h102.997c-4.39355 12.416 -16.2559 21.333 -30.165 21.333
h-42.667c-13.9092 0 -25.7695 -8.91699 -30.165 -21.333zM458.667 42.667c29.418 0 53.333 -23.915 53.334 -53.333c0 -5.8877 -4.7793 -10.667 -10.667 -10.667h-128c-5.8877 0 -10.667 4.7793 -10.667 10.667c0 29.418 23.9141 53.333 53.333 53.333h42.667zM385.835 0
h102.997c-4.39355 12.416 -16.2559 21.333 -30.165 21.333h-42.667c-13.9092 0 -25.7695 -8.91699 -30.165 -21.333zM74.667 320c17.6416 0 32 -14.3574 32 -32v-256c0 -5.8877 -4.7793 -10.667 -10.667 -10.667h-42.666c-5.8877 0 -10.667 4.7793 -10.667 10.667v256
c0 17.6426 14.3574 32 32 32zM85.333 42.667h0.000976562v245.333c0 5.86719 -4.7998 10.667 -10.667 10.667s-10.667 -4.7998 -10.667 -10.667v-245.333h21.333zM74.667 405.333c29.418 0 53.333 -23.9141 53.333 -53.333s-23.915 -53.333 -53.333 -53.333
s-53.333 23.9141 -53.333 53.333c0 29.418 23.9141 53.333 53.333 53.333zM74.667 320c17.6416 0 32 14.3574 32 32s-14.3574 32 -32 32s-32 -14.3574 -32 -32s14.3574 -32 32 -32zM437.333 405.333c29.4189 0 53.333 -23.915 53.333 -53.333
s-23.9141 -53.333 -53.333 -53.333c-29.418 0 -53.333 23.9141 -53.333 53.333s23.915 53.333 53.333 53.333zM437.333 320c17.6426 0 32 14.3574 32 32s-14.3574 32 -32 32s-32 -14.3574 -32 -32s14.3574 -32 32 -32zM437.333 320c17.6426 0 32 -14.3574 32.001 -32v-256
c0 -5.8877 -4.7793 -10.667 -10.667 -10.667h-42.667c-5.8877 0 -10.667 4.7793 -10.667 10.667v256c0 17.6426 14.3574 32 32 32zM448 42.667h0.000976562v245.333c0 5.86719 -4.7998 10.667 -10.667 10.667s-10.667 -4.7998 -10.667 -10.667v-245.333h21.333z
M427.883 321.408c5.41797 -2.3252 7.91406 -8.59766 5.61035 -14.0166c-28.6504 -66.8799 -103.296 -115.392 -177.493 -115.392c-74.0049 0 -148.629 48.4912 -177.451 115.328c-2.3457 5.41895 0.150391 11.6904 5.54688 14.0156
c5.39746 2.38965 11.6904 -0.149414 14.0371 -5.54688c29.0146 -67.2852 101.376 -102.464 157.867 -102.464c64.96 0 132.864 44.0322 157.867 102.464c2.3252 5.44043 8.61914 7.91504 14.0156 5.61133z" />
    <glyph glyph-name="010-gallery" unicode="&#xf109;" 
d="M593.642 -64h-518.789c-41.083 0 -74.5186 33.4248 -74.5186 74.5186v362.963c0 41.083 33.4248 74.5186 74.5186 74.5186h518.789c41.0938 0 74.5186 -33.4248 74.5186 -74.5186v-362.963c0 -41.0938 -33.4248 -74.5186 -74.5186 -74.5186zM74.8525 425.739
c-28.8057 0 -52.2578 -23.4404 -52.2578 -52.2578v-362.963c0 -28.8174 23.4404 -52.2578 52.2578 -52.2578h518.789c28.8164 0 52.2578 23.4404 52.2578 52.2578v362.963c0 28.8174 -23.4414 52.2578 -52.2578 52.2578h-518.789v0zM434.421 203.131
c-36.8193 0 -66.7822 29.9512 -66.7822 66.7822c0 36.8301 29.9629 66.7822 66.7822 66.7822c36.8311 0 66.7822 -29.9521 66.7822 -66.7822c0 -36.8311 -29.9629 -66.7822 -66.7822 -66.7822zM434.421 314.435c-24.5537 0 -44.5215 -19.9678 -44.5215 -44.5215
s19.9678 -44.5215 44.5215 -44.5215s44.5215 19.9678 44.5215 44.5215s-19.9785 44.5215 -44.5215 44.5215zM593.642 -64h-254.453c-4.38477 0 -8.3584 2.57129 -10.1504 6.56738c-1.79199 3.99512 -1.08008 8.68164 1.83594 11.9541l173.146 194.782
c4.21875 4.75293 12.4102 4.75293 16.6396 0l139.364 -156.783c2.88281 -3.25 3.61719 -7.88086 1.87012 -11.8652c-11.876 -27.125 -38.667 -44.6553 -68.252 -44.6553zM363.977 -41.7393h229.665c18.4102 0 35.2832 9.69434 44.667 25.1768l-125.975 141.725zM339.188 -64
h-264.348c-41.082 0 -74.5176 33.4248 -74.5176 74.5186v68.7861c0 2.72656 1.00098 5.35352 2.81543 7.40137l189.218 212.869c4.21777 4.75293 12.4102 4.75293 16.6396 0l222.608 -250.435c3.75098 -4.21777 3.75098 -10.5732 0 -14.792l-84.1016 -94.6084
c-2.10352 -2.38184 -5.13086 -3.74023 -8.31445 -3.74023zM22.5947 75.0752v-64.5566c0 -28.8174 23.4404 -52.2578 52.2578 -52.2578h259.35l74.207 83.4785l-207.728 233.684z" />
    <glyph glyph-name="012-seat" unicode="&#xf10b;" 
d="M458.667 277.333c17.6445 0 32 -14.3545 32 -31.998c0 -17.6455 -14.3535 -32 -32 -32c-9.00977 0 -16.6348 -6.45898 -18.125 -15.3652l-9.85352 -59.1455c-5.19824 -31 -31.75 -53.4902 -63.125 -53.4902h-99.7754l6.4873 -64.8711
c45.3848 -2.84375 88.3916 -16.2959 88.3916 -41.7959c0 -29.3135 -55.292 -42.667 -106.667 -42.667s-106.667 13.3535 -106.667 42.667c0 25.5 43.0068 38.9521 88.3916 41.7959l6.4873 64.8711h-99.7754c-31.375 0 -57.9268 22.4795 -63.125 53.4482l-9.85352 59.2188
c-1.49023 8.875 -9.11523 15.333 -18.125 15.333c-17.6465 0 -32 14.3545 -32 32c0 17.6465 14.3535 32 32 32c20.3184 0 39.0391 -7.33691 53.5 -19.6807c0.888672 22.748 19.5352 41.0137 42.5 41.0137h96v21.333h-53.333c-23.5312 0 -42.667 19.1348 -42.667 42.666
v42.667c0 23.5322 19.1357 42.667 42.667 42.667h128c23.5312 0 42.667 -19.1348 42.667 -42.667v-42.666c0 -23.5322 -19.1357 -42.667 -42.667 -42.667h-53.333v-21.334h96c22.9668 0 41.6133 -18.2666 42.5 -41.0215c14.4609 12.3496 33.1816 19.6885 53.5 19.6885z
M192 341.333h128c11.7598 0 21.333 9.57324 21.333 21.333v42.667c0 11.7598 -9.57324 21.333 -21.333 21.333h-128c-11.7598 0 -21.333 -9.57324 -21.333 -21.333v-42.667c0 -11.7598 9.57324 -21.333 21.333 -21.333zM128 256v-26.9326
c2.93848 -6.45898 5.35938 -13.2314 6.58301 -20.5361l9.85352 -59.208l223.125 0.00976562l9.85449 59.167c1.22363 7.30859 3.64355 14.082 6.58301 20.5459v26.9541c0 11.7598 -9.57324 21.333 -21.333 21.333h-213.333c-11.7598 0 -21.333 -9.57324 -21.333 -21.333z
M274.573 -17.8232c-2.02148 -2.24023 -4.89648 -3.50977 -7.90723 -3.50977h-21.333c-3.00977 0 -5.88477 1.26953 -7.90625 3.50977c-2.01953 2.22949 -3.00977 5.21973 -2.70801 8.21973l0.854492 8.53809c-44.3574 -3.33398 -64.9062 -16.2607 -64.9062 -20.2676
c0 -5.47852 29.3438 -21.333 85.333 -21.333s85.333 15.8545 85.333 21.333c0 4.00586 -20.5488 16.9326 -64.9062 20.2676l0.854492 -8.53809c0.301758 -3 -0.6875 -5.99023 -2.70801 -8.21973zM458.667 234.667c5.88477 0 10.666 4.78125 10.666 10.666
c0 5.88574 -4.78223 10.667 -10.667 10.667c-29.9375 0 -55.2598 -21.458 -60.208 -51.0098l-9.85449 -59.1465c-1.75 -10.3535 -10.6035 -17.8438 -21.042 -17.8438h-223.125c-10.4365 0 -19.2803 7.47852 -21.042 17.7812l-9.85352 59.2402
c-4.94824 29.5303 -30.2695 50.9785 -60.208 50.9785c-5.88574 0 -10.667 -4.78223 -10.667 -10.667c0 -5.88574 4.78223 -10.667 10.667 -10.667c19.4688 0 35.9482 -13.9482 39.167 -33.1562l9.85352 -59.209c3.46875 -20.6445 21.166 -35.6348 42.083 -35.6348h223.127
c20.915 0 38.6133 15 42.083 35.667l9.85352 59.1455c3.21875 19.2402 19.6885 33.1885 39.167 33.1885z" />
    <glyph glyph-name="003-scissor" unicode="&#xf102;" 
d="M332.756 148.408c37.584 0 68.1611 -30.5771 68.1611 -68.1611s-30.5771 -68.1611 -68.1611 -68.1611s-68.1611 30.5771 -68.1611 68.1611c0 9.8877 2.1582 19.6494 6.28125 28.5732l-63.9775 59.5723l-16.6113 -16.8877v-83.5381
c26.2979 -9.88086 44.1885 -35.3008 44.1885 -63.8057c0 -37.584 -30.5771 -68.1611 -68.1611 -68.1611s-68.1611 30.5771 -68.1611 68.1611c0 28.709 18.0469 54.1875 44.5791 63.957v130.66l-138.91 177.939l33.3516 33.3525l105.561 -105.56v143.489h47.166
l26.7832 -217.439l88.1396 -88.1416c8.75 3.93262 18.293 5.98926 27.9326 5.98926zM24.9443 375.422l117.79 -150.884v57.5547l-105.561 105.561zM174.437 157.992l31.293 31.8174l-29.8496 242.34h-17.2959v-375.9l-5.87012 -1.57715
c-22.791 -6.12012 -38.709 -26.8906 -38.709 -50.5127c0 -28.8438 23.4668 -52.3105 52.3105 -52.3105s52.3096 23.4678 52.3096 52.3105c0 23.4531 -15.7783 44.1846 -38.3711 50.417l-5.81738 1.60547v101.811zM332.756 27.9375
c28.8428 0 52.3105 23.4629 52.3105 52.3066s-23.4668 52.3105 -52.3096 52.3105c-8.96191 0 -17.8154 -2.31738 -25.6016 -6.69824l-5.23828 -2.94922l-82.085 82.084l2.56738 -20.8418l-4.37988 -4.45312l72.7031 -67.6982l-3.18945 -5.47266
c-4.63672 -7.95801 -7.08789 -17.0449 -7.08789 -26.2783c0 -28.8438 23.4668 -52.3096 52.3105 -52.3096zM332.756 114.592c18.9375 0 34.3438 -15.4072 34.3447 -34.3457c0 -18.9365 -15.4072 -34.3447 -34.3447 -34.3447c-18.9385 0 -34.3457 15.4082 -34.3457 34.3447
c0 18.9375 15.4072 34.3457 34.3457 34.3457zM332.756 61.7529c10.1973 0 18.4932 8.29688 18.4932 18.4932s-8.29688 18.4932 -18.4932 18.4932s-18.4932 -8.29688 -18.4932 -18.4932s8.2959 -18.4932 18.4932 -18.4932zM166.315 38.5049
c18.9375 0 34.3447 -15.4072 34.3447 -34.3447s-15.4062 -34.3447 -34.3447 -34.3447c-18.9395 0 -34.3447 15.4072 -34.3447 34.3447s15.4062 34.3447 34.3447 34.3447zM166.315 -14.333c10.1973 0 18.4932 8.29688 18.4932 18.4932s-8.29688 18.4932 -18.4932 18.4932
s-18.4932 -8.29688 -18.4932 -18.4932s8.2959 -18.4932 18.4932 -18.4932zM172.653 200.719v15.8506h15.8506v-15.8506h-15.8506zM373.528 448h134.649v-48.083v-0.000976562h-119.414v-13.7373h119.414v-47.5547h-119.414v-13.7383h119.414v-47.5537h-119.414v-13.7383
h119.414v-47.5547h-119.414v-13.7363h119.413v-47.5547h-121.526l-0.000976562 -9.51074l-15.8506 0.000976562l0.000976562 25.3623h121.526v15.8506h-119.414v45.4414h119.414v15.8506h-119.414v45.4414h119.414v15.8516h-119.414v45.4404h119.414v15.8516h-119.414
v45.4404h119.415v16.3809h-118.799c-17.8193 0 -32.3184 -14.498 -32.3184 -32.3193v-237.155h-15.8516v237.155c0 26.5596 21.6084 48.1699 48.1699 48.1699zM372.912 15.2559h15.8525v-37.5146c0 -17.4814 -14.2217 -31.7031 -31.7031 -31.7031
c-17.4805 0 -31.7031 14.2217 -31.7031 31.7031v23.0713h15.8516v-23.0713c0 -8.74023 7.11035 -15.8516 15.8506 -15.8516s15.8516 7.11133 15.8516 15.8516v37.5146z" />
    <glyph glyph-name="019-beard" unicode="&#xf112;" 
d="M503.565 297.727c-5.39648 -10.2852 -13.2734 -18.9229 -23.4375 -25.8428c6.95703 -8.56934 15.4844 -21.6533 20.373 -38.6299c8.28418 -28.7695 3.33887 -58.2832 -14.6982 -87.7217c-4.31152 -7.03809 -14.6162 -7.66309 -19.5 -0.882812
c-0.00292969 0.00488281 -3.98535 5.5332 -3.98535 5.5332c0.00292969 -20.2539 -4.98145 -49.3662 -28.9893 -72.0732c-5.12988 -4.85059 -13.4775 -3.88965 -17.4756 1.66113c-0.000976562 0.000976562 -3.72266 5.16895 -3.72266 5.16895
c-1.23926 -20.1406 -9.71484 -50.0166 -43.7744 -75.5537c-5.14062 -3.85352 -12.627 -2.6582 -16.3887 2.53125c-0.0166016 0.0224609 -11.5742 15.9668 -11.5742 15.9668c-2.36426 -10.501 -7.17969 -24.0205 -16.8994 -38.0947
c-14.4814 -20.9697 -36.167 -37.9619 -64.4541 -50.5039c-1.96387 -0.870117 -4.30371 -0.787109 -6.0791 0c-28.2871 12.542 -49.9727 29.5342 -64.4541 50.5039c-9.71973 14.0742 -14.5361 27.5928 -16.8994 38.0938l-11.5742 -15.9668
c-3.75293 -5.17871 -11.2363 -6.39355 -16.3896 -2.53027c-34.0576 25.5342 -42.5332 55.4102 -43.7725 75.5508l-3.72266 -5.16797c-4.07812 -5.65918 -12.3975 -6.46387 -17.4756 -1.66016c-24.0078 22.707 -28.9922 51.8184 -28.9902 72.0723l-3.98438 -5.53223
c-4.87598 -6.7666 -15.1885 -6.15723 -19.501 0.881836c-18.0361 29.4395 -22.9814 58.9531 -14.6973 87.7217c4.89746 17.0068 13.4453 30.1055 20.4102 38.6738c-10.2051 6.93652 -18.1084 15.5732 -23.4746 25.8008c-8.09863 15.4375 -10.4658 33.5918 -6.66504 51.1221
c3.91992 18.085 14.0498 33.4092 28.5244 43.1484c0.0380859 0.0273438 0.196289 0.132812 0.404297 0.257812c8.16211 4.9248 18.9795 -0.201172 20.5068 -9.55371c2.03711 -12.4736 7.22949 -28.1406 20.3945 -31.9326c21.3711 -6.15625 35.9404 20.6885 46.1201 34.877
c12.2871 17.1299 24.9922 34.8438 43.8672 46.7568c32.3945 20.4453 67.8945 16.373 94.415 -10.2217c26.5176 26.5957 62.0176 30.667 94.4121 10.2227c16.8438 -10.6309 28.8955 -26.1348 38.8711 -39.832c2.4375 -3.34863 1.69922 -8.03906 -1.64844 -10.4766
c-3.34766 -2.43848 -8.03809 -1.70215 -10.4766 1.64648c-9.15723 12.5742 -20.1494 26.7598 -34.7529 35.9756c-28.3896 17.9189 -58.5439 12.8857 -80.6631 -13.4658c-2.97168 -3.53906 -8.5166 -3.53906 -11.4883 0.000976562
c-22.1201 26.3506 -52.2744 31.3828 -80.6631 13.4648c-16.4004 -10.3496 -28.2383 -26.8535 -39.6855 -42.8135c-14.1826 -19.7744 -34.0225 -48.7344 -62.457 -40.5488c-15.9111 4.58301 -26.4932 19.0322 -30.6865 41.8457
c-21.4375 -16.0234 -28.2178 -48.4023 -15.0469 -73.502c12.707 -24.2197 41.9795 -33.5293 67.4512 -36.5947c4.33008 -0.522461 7.3877 -4.80762 6.4248 -9.07324c-0.839844 -3.71582 -4.46387 -6.27441 -8.2168 -5.82422c-8.34277 1 -16.6348 2.57617 -24.7246 4.85449
c-6.25977 1.7627 -12.1133 3.86523 -17.4873 6.33984c-13.2783 -15.5068 -38.0811 -54.6836 -8.64746 -106.835l7.46973 10.3701c6.92871 9.61621 22.1611 3.48145 21.126 -8.10938c-1.7373 -19.4678 0.648438 -46.7236 21.1494 -68.1201l7.37207 10.2344
c6.76562 9.3916 21.7451 3.79688 21.1592 -7.61133c-0.977539 -19.0234 4.42969 -46.5176 35.1104 -70.8311l14.1162 19.4756c6.12988 8.4541 19.5791 4.87598 21.0322 -5.3457c2.88477 -20.2881 15.9814 -57.7539 70.9492 -83.252
c54.9678 25.498 68.0635 62.9648 70.9482 83.2529c1.45215 10.2129 14.8936 13.8145 21.0322 5.3457c0.0302734 -0.0429688 14.1162 -19.4756 14.1162 -19.4756c30.6826 24.3145 36.0879 51.8086 35.1104 70.832c-0.583984 11.3877 14.4023 16.9922 21.1592 7.61035
c0.0244141 -0.0322266 7.37305 -10.2334 7.37305 -10.2334c20.501 21.3965 22.8867 48.6514 21.1494 68.1191c-1.0332 11.5654 14.2246 17.6865 21.125 8.10742c0.0234375 -0.0341797 7.4707 -10.3701 7.4707 -10.3701c29.4307 52.1484 4.63281 91.3242 -8.64648 106.833
c-20.2656 -9.34668 -43.3271 -12.6553 -65.4863 -12.6553c-27.5508 0 -55.0381 7.13379 -81.0527 20.7354c-13.0498 -22.6445 -37.4756 -36.8867 -64.2988 -36.8867c-26.8467 0 -51.29 14.2656 -64.3311 36.9434c-23.7852 -12.4287 -48.8213 -19.5176 -73.8262 -20.6172
c-4.13477 -0.191406 -7.63965 3.02441 -7.82129 7.16211c-0.182617 4.1377 3.02441 7.63965 7.16211 7.82129c42.8643 1.88574 81.8975 23.0576 112.98 51.3145c4.19629 3.81543 7.88281 8.25879 12.1777 11.9414c7.73535 6.63379 19.5674 6.64258 27.3145 0
c7.85352 -6.73242 14.668 -14.5312 22.6709 -21.1191c31.6377 -26.0439 71.4697 -43.3438 112.956 -42.2256c30.5322 0.822266 69.3574 8.07031 85 37.8848c13.1826 25.126 6.37305 57.5479 -15.0469 73.5078c-4.19336 -22.8154 -14.7754 -37.2656 -30.6855 -41.8486
c-25.6309 -7.38281 -43.1367 14.8496 -49.7266 23.2197c-2.56152 3.25391 -2 7.96777 1.25391 10.5312c3.25488 2.56152 7.96973 2.00098 10.5312 -1.25391c12.5127 -15.8926 22.6172 -21.3018 33.79 -18.084c13.166 3.79199 18.3584 19.459 20.3955 31.9346
c1.5293 9.36133 12.334 14.4756 20.5117 9.54785c0.202148 -0.121094 0.360352 -0.226562 0.472656 -0.304688c14.4004 -9.68945 24.5303 -25.0127 28.4512 -43.0977c3.7998 -17.5303 1.43262 -35.6846 -6.66602 -51.1221zM256.001 250.589
c21.3936 0 40.8652 11.3174 51.2676 29.3145c-10.7246 6.67188 -20.8975 14.21 -30.3721 22.5635c-5.72461 5.04785 -11.248 10.3223 -16.5195 15.8428c-2.36035 2.47461 -6.38867 2.47754 -8.75391 0c-2.47852 -2.5957 -5.0127 -5.14258 -7.59766 -7.63379
c-12.3604 -11.9258 -25.5225 -22.2393 -39.2939 -30.7715c10.4023 -17.998 29.875 -29.3154 51.2695 -29.3154z" />
    <glyph glyph-name="005-razor" unicode="&#xf104;" 
d="M72.9434 414.968h16.5166v-16.5166h-16.5166v16.5166zM72.9434 414.968zM72.9434 -14.4512h16.5166v-16.5166h-16.5166v16.5166zM72.9434 -14.4512zM438.504 285.061c3.89551 -4.89941 6.05273 -11.0322 6.05273 -17.2939c0 -8.66211 -4.1377 -16.9355 -11.0732 -22.1299
l-318.87 -239.153c0.604492 -2.19727 1.13281 -4.40234 1.75781 -6.5918l4.69336 -16.4238c0.947266 -3.35449 1.42773 -6.79004 1.42773 -10.2344c0 -20.5361 -16.6982 -37.2334 -37.2344 -37.2334c-15.9316 0 -29.9355 9.70996 -35.3623 24.1689l-1.52832 4.05664
c-1.09668 2.93945 -2.08887 5.93164 -3.14551 8.89551c-12.2295 -9.38281 -22.8672 -20.5244 -31.4795 -33.4395l-13.7422 9.16113c10.6367 15.9512 24.0078 29.5117 39.5723 40.6133c-6.91113 21.1045 -12.7734 42.6084 -17.4072 64.2373l-1.26562 5.91113
c-9.30664 43.4316 -14.0205 87.9678 -14.0205 132.396s4.71387 88.9639 14.0205 132.396l1.26562 5.91113c6.49219 30.3145 15.3184 60.415 26.2021 89.4678l1.54395 4.08008c5.41992 14.4355 19.4238 24.1455 34.8594 24.1455c21.0234 0 37.7217 -16.6973 37.7217 -37.2334
c0 -3.43555 -0.480469 -6.87109 -1.42773 -10.2178l-4.69336 -16.4404c-17.8506 -62.4834 -26.9111 -127.108 -26.9111 -192.108c0 -45.2939 4.5 -90.3994 13.2139 -134.738l99.6084 73.3955l-7.59668 9.49219c-3.94727 4.93555 -6.12891 11.1445 -6.12891 17.4717
c0 8.65332 3.91504 16.6816 10.7334 22.0244l177.105 138.604c4.83789 3.79004 10.8984 5.87891 17.0518 5.87891c8.94434 0 16.8232 -3.78223 22.0967 -10.3789zM84.7705 -47.4834c11.915 0 21.2051 9.29004 21.2051 20.7168
c0 1.91992 -0.265625 3.83496 -0.801758 5.70996l-4.69043 16.4072c-18.2734 63.96 -27.54 130.121 -27.54 196.649s9.2666 132.689 27.54 196.649l4.69043 16.4229c0.536133 1.85938 0.801758 3.77441 0.801758 5.69434c0 11.4268 -9.29004 20.7168 -20.7178 20.7168
c-9.07617 0 -16.875 -5.39844 -19.8789 -13.4434l-1.54395 -4.08008c-10.5967 -28.2744 -19.1816 -57.5928 -25.5166 -87.1133l-1.26562 -5.91504c-3.86328 -18.0244 -6.73828 -36.2744 -8.96777 -54.6094h28.3428v-16.5156h-30.1572
c-0.520508 -5.5 -0.944336 -11.0078 -1.31445 -16.5166h31.4717v-16.5156h-32.3789c-0.226562 -5.50781 -0.363281 -11.0078 -0.44043 -16.5166h32.8193v-16.5156h-32.8193c0.0771484 -5.50879 0.213867 -11.0088 0.44043 -16.5166h32.3789v-16.5156h-31.4717
c0.370117 -5.50879 0.793945 -11.0166 1.31445 -16.5166h30.1572v-16.5156h-28.3428c2.22949 -18.335 5.10449 -36.585 8.95898 -54.6094l1.2666 -5.91504c6.33105 -29.5205 14.9189 -58.8389 25.5244 -87.1289l1.52832 -4.05664
c3.03223 -8.05273 10.8184 -13.4512 19.4072 -13.4512zM423.581 258.851c2.79004 2.09668 4.45898 5.42383 4.45898 8.91602c0 2.52734 -0.866211 5.00391 -2.44336 6.97168l-3.90723 4.87891l-176.266 -135.464l-10.0693 13.0967l176.013 135.267l-8.73047 10.9111
c-3.9873 4.97949 -11.8906 5.10059 -16.0762 1.81445l-177.093 -138.601c-2.79395 -2.19043 -4.39551 -5.47656 -4.39551 -9.02051c0 -2.58496 0.891602 -5.12891 2.5127 -7.14941l18.3301 -22.9189l-119.52 -88.0605c1.17285 -5.27832 2.33008 -10.5566 3.63672 -15.8066z
M423.581 258.851z" />
    <glyph glyph-name="020-man-hair" unicode="&#xf113;" 
d="M446.748 309.919c5.37598 -37.4414 -5.89648 -75.1387 -33.2803 -112.094v-22.9102c0 -58.6709 -5.75098 -118.417 -47.4756 -158.034c-6.55273 -6.21191 -13.5918 -11.7842 -20.7852 -17.0225v-55.3262c0 -4.71875 -3.82324 -8.53223 -8.53223 -8.53223
c-4.70996 0 -8.5332 3.81348 -8.5332 8.53223v43.5166c-0.742188 -0.50293 -1.49316 -1.00684 -2.23535 -1.49316c-0.290039 -0.195312 -0.588867 -0.400391 -0.878906 -0.59668l-8.18262 -5.49414c-3.2334 -2.19336 -6.39062 -4.52246 -9.53906 -6.86035
c-13.6611 -10.0947 -27.791 -20.5391 -47.6553 -20.5391c-19.873 0 -34.0029 10.4434 -47.6631 20.5469c-3.1416 2.3291 -6.29785 4.6582 -9.53125 6.85156l-8.20117 5.50293c-0.630859 0.427734 -1.2793 0.862305 -1.91016 1.29688
c-0.239258 0.154297 -0.486328 0.316406 -0.725586 0.478516v-43.21c0 -4.71875 -3.82227 -8.53223 -8.53223 -8.53223s-8.53223 3.81348 -8.53223 8.53223v55.002c-7.35547 5.32422 -14.5566 10.998 -21.2461 17.3467c-41.5205 39.4297 -47.2461 98.791 -47.2461 157.07
l0.0683594 23.0381c-26.6641 24.2236 -40.9053 51.9219 -42.0996 82.4512c-2.26172 57.8779 42.791 104.304 44.7197 106.249c3.16504 3.2002 8.28516 3.40527 11.6729 0.452148c3.4043 -2.96094 3.91699 -8.05469 1.16895 -11.6299
c-5.78418 -7.55176 -5.98926 -10.7422 -5.97266 -11.2637c0.0517578 0.196289 0.921875 -0.255859 2.58594 -0.605469c5.1875 -1.13477 11.0068 0.844727 15.2051 5.05176l9.51367 9.50488c74.1484 74.1484 132.162 70.915 134.637 70.7354
c4.69336 -0.333008 8.22559 -4.41992 7.90137 -9.11328c-0.392578 -5.5625 0.273438 -18.5918 4.76953 -23.4131c0.444336 -0.477539 0.896484 -0.836914 1.3916 -1.08398c19.0361 14.3867 58.8672 29.6602 93.2197 -2.48242
c5.47754 -4.16504 53.3115 -41.9902 61.9043 -101.923zM396.405 200.513h-0.00390625v51.1943c0 5.76855 -1.12695 11.3574 -3.35352 16.6221c-0.956055 2.27832 -2.1416 4.39453 -3.51562 6.34766c-0.169922 0.24707 -0.400391 0.427734 -0.580078 0.674805
c-9.77051 13.166 -28.3799 18.583 -45.8291 12.2773c-13.0117 -4.70898 -38.0225 -10.3242 -83.2451 -10.3242s-70.2324 5.61523 -83.2441 10.3242c-2.50781 0.905273 -5.03418 1.57031 -7.55957 1.99707c-1.01465 0.179688 -2.00488 0.163086 -3.01172 0.264648
c-1.51855 0.154297 -3.03809 0.375977 -4.53125 0.367188c-0.375977 0 -0.742188 -0.0595703 -1.11719 -0.0673828c-1.88574 -0.0693359 -3.75391 -0.256836 -5.58887 -0.555664c-0.708008 -0.110352 -1.4082 -0.28125 -2.11621 -0.426758
c-1.53516 -0.349609 -3.03711 -0.776367 -4.49609 -1.28906c-0.639648 -0.22168 -1.28027 -0.418945 -1.89355 -0.666016c-1.98828 -0.810547 -3.91602 -1.73145 -5.7168 -2.84961c-0.180664 -0.119141 -0.341797 -0.255859 -0.521484 -0.375
c-1.62012 -1.04102 -3.13965 -2.22656 -4.56445 -3.50684c-0.495117 -0.43457 -0.947266 -0.904297 -1.4082 -1.37402c-1.10059 -1.1084 -2.13379 -2.29395 -3.08008 -3.54004c-0.383789 -0.512695 -0.785156 -0.998047 -1.14355 -1.53613
c-1.20215 -1.7998 -2.31152 -3.69336 -3.17383 -5.75098c-2.22754 -5.25488 -3.35352 -10.8438 -3.35352 -16.6123l-0.229492 -77.7842c0 -50.7275 3.24219 -107.938 41.9297 -144.655c7.56934 -7.19336 16.1182 -13.5928 24.8389 -19.6758
c4.65039 -3.24219 9.35254 -6.4248 14.0615 -9.57324l8.07324 -5.42676c3.4209 -2.32129 6.77441 -4.7959 10.1104 -7.26172c1.49316 -1.11035 2.97852 -2.20215 4.46289 -3.27637c10.3672 -7.52539 20.582 -13.9248 33.0479 -13.9248
c14.2422 0 25.5391 8.35254 37.5098 17.2012c3.33594 2.46582 6.68164 4.94043 10.1113 7.26172l8.32715 5.59766c4.59082 3.07227 9.16504 6.16895 13.6953 9.33496c8.7627 6.10938 17.3379 12.5264 24.9492 19.7441c37.0488 35.1729 42.1602 90.7803 42.1602 145.646
v25.5977z" />
    <glyph glyph-name="006-blade-1" unicode="&#xf105;" 
d="M172.766 -10.5957c0 4.16211 3.37402 7.53613 7.53516 7.53613c4.16211 0 7.53613 -3.37402 7.53613 -7.53613c0 -4.16113 -3.37402 -7.53516 -7.53613 -7.53516c-4.16113 0 -7.53516 3.37402 -7.53516 7.53516zM510.851 357.608
c1.06445 -1.7002 1.40723 -3.75488 0.953125 -5.70898c-0.454102 -1.95312 -1.66895 -3.64648 -3.375 -4.70117c-21.9834 -13.6035 -69.8057 -21.3848 -106.228 -25.5264c-2.12695 -19.248 -5.14648 -38.4336 -9.08301 -57.4629
c-0.842773 -4.0752 -4.83496 -6.69336 -8.90625 -5.85254c-4.07422 0.842773 -6.69531 4.83105 -5.85254 8.90625c9.50098 45.9287 13.624 92.7783 12.2529 139.246c-0.00683594 0.243164 -0.216797 7.38281 -0.216797 7.38281
c-0.304688 9.2666 -7.77148 17.0273 -17 17.6426c-10.0322 0.666016 -18.7246 -6.94434 -19.3926 -16.9688c-1.6875 -25.3623 -4.94922 -50.6592 -9.69336 -75.1855c-9.78223 -50.584 -25.8291 -98.4316 -47.8125 -142.72h62.7539
c4.3916 13.0605 8.36035 26.3145 11.8838 39.7588c1.05469 4.02539 5.16895 6.43457 9.19922 5.37891c4.02539 -1.05469 6.43359 -5.17285 5.37793 -9.19922c-17.7285 -67.6553 -46.2793 -130.753 -84.8594 -187.542c-22.1895 -32.6602 -47.6963 -63.3516 -75.8115 -91.2217
l-0.285156 -0.282227c-10.8975 -10.8027 -25.1602 -16.1982 -39.416 -16.1982c-14.4238 0 -28.8428 5.52148 -39.7764 16.5498c-21.7373 21.9307 -21.582 57.458 0.347656 79.1982c4.48242 4.44336 8.96289 8.85449 13.4287 13.2539
c40.0488 39.4385 77.875 76.6904 106.23 124.819c26.6055 45.1562 46.374 94.7451 58.917 147.703h-65.0312v-19.2559c0 -23.043 -18.7471 -41.79 -41.791 -41.79h-175.875c-23.043 0 -41.79 18.7471 -41.79 41.79v20.7852c0 23.042 18.7471 41.7891 41.79 41.79h28.8906
c4.16211 0 7.53516 -3.37402 7.53516 -7.53613c0 -4.16113 -3.37305 -7.53516 -7.53516 -7.53516h-28.8906c-14.7334 0 -26.7188 -11.9863 -26.7188 -26.7188v-15.7773h229.313v21.7842c0 4.16113 3.37305 7.53516 7.53516 7.53516h75.9023
c0.576172 2.75879 1.1543 5.5166 1.69141 8.29199c0.313477 1.62207 0.603516 3.25586 0.904297 4.88477h-229.595c-4.16309 0 -7.53613 3.37402 -7.53613 7.53516c0 4.16211 3.37305 7.53613 7.53613 7.53613h232.176c2.7666 17.5811 4.77539 35.4541 5.96777 53.3701
c1.2207 18.3164 17.0967 32.2295 35.4316 31.0049c17.1445 -1.14258 30.498 -14.9912 31.0635 -32.2129c0.000976562 -0.0253906 0.217773 -7.41992 0.21875 -7.46484c0.396484 -13.418 0.327148 -26.8711 -0.169922 -40.3281
c36.4941 5.71875 63.2588 12.709 75.626 19.7842l2.33008 1.33203c3.51074 2.00684 7.97754 0.885742 10.126 -2.54004zM217.665 272.903c11.1729 0 20.7617 6.89746 24.7451 16.6553h-225.364c3.98242 -9.75879 13.5703 -16.6553 24.7441 -16.6553h175.875z
M315.727 98.0195c3.76074 6.77344 7.37793 13.5967 10.8184 20.4043h-79.1299c-5.52344 -6.96875 -11.2236 -13.752 -17.0723 -20.4043h85.3838zM288.387 53.5254c6.53711 9.62305 12.7715 19.4365 18.7158 29.4219h-90.4336
c-14.9521 -16.0078 -30.6748 -31.4971 -46.7529 -47.3311c-4.45508 -4.3877 -8.92285 -8.78809 -13.3936 -13.2197c-16.0283 -15.8887 -16.1436 -41.8555 -0.254883 -57.8838c15.8857 -16.0264 41.8525 -16.1436 57.8828 -0.253906l0.285156 0.282227
c27.4238 27.1846 52.3066 57.124 73.9512 88.9844zM333.919 133.496c2.89746 6.16992 5.69434 12.3936 8.38086 18.6738h-70.7275c-4.0957 -6.4043 -8.34082 -12.6211 -12.7256 -18.6738h75.0723zM353.931 181.589h-65.2168
c-2.52441 -4.70117 -5.11621 -9.36133 -7.77832 -13.9746c-0.0712891 -0.123047 -0.140625 -0.25 -0.211914 -0.373047h67.7275c1.89551 4.7832 3.72656 9.57617 5.47949 14.3477zM403.712 337.018c41.3877 4.86621 72.75 11.6709 90.0508 19.4727l-9.1875 14.6592
c-19.2627 -9.29395 -53.2832 -15.9023 -79.8203 -19.9502c-0.293945 -4.72852 -0.640625 -9.45605 -1.04297 -14.1816z" />
    <glyph glyph-name="013-login" unicode="&#xf10c;" 
d="M192 234.668c-58.8164 0 -106.668 47.8477 -106.668 106.664s47.8516 106.668 106.668 106.668s106.668 -47.8516 106.668 -106.668s-47.8516 -106.664 -106.668 -106.664zM192 416c-41.1719 0 -74.668 -33.4922 -74.668 -74.668
c0 -41.1719 33.4961 -74.6641 74.668 -74.6641s74.668 33.4922 74.668 74.6641c0 41.1758 -33.4961 74.668 -74.668 74.668zM192 416zM474.668 -42.668h-117.336c-20.5859 0 -37.332 16.7461 -37.332 37.3359v74.6641c0 20.5898 16.7461 37.3359 37.332 37.3359h117.336
c20.5859 0 37.332 -16.7461 37.332 -37.3359v-74.6641c0 -20.5898 -16.7461 -37.3359 -37.332 -37.3359zM357.332 74.668c-2.94141 0 -5.33203 -2.39062 -5.33203 -5.33594v-74.6641c0 -2.94531 2.39062 -5.33594 5.33203 -5.33594h117.336
c2.94141 0 5.33203 2.39062 5.33203 5.33594v74.6641c0 2.94531 -2.39062 5.33594 -5.33203 5.33594h-117.336zM357.332 74.668zM453.332 74.668h-74.6641c-8.83203 0 -16 7.16797 -16 16v48c0 29.3945 23.9336 53.332 53.332 53.332s53.332 -23.9375 53.332 -53.332v-48
c0 -8.83203 -7.16797 -16 -16 -16zM394.668 106.668h42.6641v32c0 11.7539 -9.57812 21.332 -21.332 21.332s-21.332 -9.57812 -21.332 -21.332v-32zM394.668 106.668zM266.668 0h-250.668c-8.83203 0 -16 7.16797 -16 16v74.668c0 55.8711 45.4609 101.332 101.332 101.332
h186.668c17.8359 0 35.3906 -4.71484 50.7539 -13.6523c7.63672 -4.4375 10.2148 -14.2305 5.78125 -21.8672c-4.4375 -7.66016 -14.2305 -10.2188 -21.8906 -5.78125c-10.4727 6.07812 -22.4648 9.30078 -34.6445 9.30078h-186.668
c-38.2266 0 -69.332 -31.1055 -69.332 -69.332v-58.668h234.668c8.83203 0 16 -7.16797 16 -16s-7.16797 -16 -16 -16zM266.668 0z" />
    <glyph glyph-name="002-cut" unicode="&#xf101;" 
d="M439.954 -42.9893c5.20996 -1.33301 8.64746 -6.33301 7.96191 -11.665c-0.666016 -5.34375 -5.18848 -9.34375 -10.5635 -9.34375c-22.1318 0 -37.9678 8.81348 -47.3359 16.0635c-6.41113 -7.29199 -14.4482 -12.7158 -23.9414 -14.917
c-3.27246 -0.760742 -6.58398 -1.13574 -9.91797 -1.13574c-8.85547 0 -17.8145 2.64648 -25.9609 7.77148c-14.626 9.20801 -25.4199 25.3848 -29.6514 44.3887c0 0 0 0.0126953 -0.00292969 0.0263672c-4.65625 19.1914 -37.1045 104.598 -65.3418 124.777
c-30.624 -20.708 -62.7891 -110.028 -66.4141 -124.777c0 0 0.000976562 -0.015625 -0.00292969 -0.0302734c-4.22949 -19 -15.0225 -35.1768 -29.6484 -44.3848c-8.14746 -5.125 -17.1064 -7.77148 -25.9609 -7.77148c-3.33398 0 -6.64746 0.375 -9.91797 1.13574
c-28.2939 6.5625 -45.0664 40.0732 -37.3994 74.6885v0.00976562c4.22852 18.9902 15.0225 35.167 29.6484 44.375c11.209 7.0625 23.8975 9.44824 35.8779 6.63477c3.02539 -0.702148 5.8457 -1.85449 8.59082 -3.14062l56.5039 119.252l-54.9883 171.816
c-8.95996 28.0527 -13.502 57.168 -13.502 86.5527c0 4.98926 3.45898 9.3125 8.33496 10.4062c4.85352 1.08301 9.85449 -1.33398 11.9795 -5.84375l86.3623 -182.305l86.3633 182.304c2.14551 4.51074 7.16699 6.92676 11.9795 5.84375
c4.875 -1.09277 8.33398 -5.41602 8.33398 -10.4062c0 -29.3848 -4.54199 -58.5 -13.501 -86.5527l-54.9893 -171.794l56.5049 -119.275c2.74512 1.28613 5.56543 2.43848 8.58984 3.14062c11.9375 2.81348 24.6475 0.428711 35.8779 -6.63477
c14.627 -9.20801 25.4189 -25.3848 29.6494 -44.375v-0.0107422c1.69727 -7.66504 2.0166 -15.2236 1.45801 -22.5h0.416992c0 -23.208 34.2734 -32.2402 34.6064 -32.3232zM312 373.023l-65.5273 -138.354l12.999 -27.4414l48.0283 150.055
c1.66699 5.20898 3.16602 10.459 4.5 15.7402zM147.957 -7.21777c5.14551 23.25 -4.4375 45.3643 -21.3965 49.3027c-8.0625 1.875 -15.1875 -1.08398 -19.667 -3.91699c-9.6875 -6.10449 -17.25 -17.6777 -20.1885 -30.9482
c-5.14551 -23.25 4.43848 -45.3643 21.3965 -49.3027c8.02148 -1.83301 15.1885 1.09375 19.667 3.91699c9.68848 6.10449 17.25 17.6777 20.1885 30.9482zM163.543 36.0859c12.0352 29.7588 30.1279 67.2461 51.1504 87.4707
c-0.220703 0.454102 -0.704102 0.703125 -0.862305 1.19434l-7.8291 24.4648l-48.876 -103.165c2.42383 -3.04785 4.60352 -6.35352 6.41699 -9.96484zM305.989 36.4043c1.77441 3.48242 3.87012 6.69434 6.21777 9.64746l-154.875 326.973
c1.33301 -5.28223 2.83301 -10.5322 4.5 -15.7402l70.291 -219.689c31.2861 -8.17676 58.0234 -61.5879 73.8662 -101.19zM361.229 -42.083c16.958 3.93848 26.542 26.0527 21.3955 49.3037c-2.9375 13.2705 -10.5 24.8438 -20.1875 30.9482
c-3.5 2.20801 -8.58301 4.5 -14.5 4.5c-1.66699 0 -3.39648 -0.177734 -5.16797 -0.583008c-16.958 -3.93848 -26.542 -26.0537 -21.3955 -49.3135c2.9375 -13.2607 10.5 -24.834 20.1875 -30.9385c4.47949 -2.82324 11.6045 -5.75 19.668 -3.91699z" />
    <glyph glyph-name="004-blade" unicode="&#xf103;" 
d="M332.801 448c14.1367 0 25.5977 -11.4609 25.5977 -25.6016v-37.3906l38.8555 19.4297c2.64453 1.32031 5.78516 1.17969 8.30078 -0.375c2.51562 -1.55859 4.04688 -4.30469 4.04688 -7.26172v-426.668c0.015625 -2.96484 -1.50781 -5.72656 -4.02734 -7.29297
s-5.66797 -1.71094 -8.32031 -0.386719l-38.8555 19.4727v-20.3242c0 -14.1406 -11.4609 -25.6016 -25.5977 -25.6016h-256c-14.1406 0 -25.6016 11.4609 -25.6016 25.6016v20.3242l-38.8516 -19.4727c-2.65234 -1.32422 -5.80469 -1.17969 -8.32031 0.386719
c-2.51953 1.56641 -4.04297 4.32812 -4.02734 7.29297v426.668c0 2.95703 1.52734 5.70312 4.04297 7.26172c2.51562 1.55469 5.66016 1.69531 8.30469 0.375l38.8516 -19.4297v37.3906c0 14.1406 11.4609 25.6016 25.6016 25.6016h256zM366.082 369.742
c-5.29688 -2.66797 -11.5977 -2.39844 -16.6406 0.714844c-5.04688 3.11328 -8.11719 8.62109 -8.10938 14.5508v37.3906c0 4.71484 -3.82031 8.53516 -8.53125 8.53516h-256c-4.71484 0 -8.53516 -3.82031 -8.53516 -8.53516v-37.3906
c0.00390625 -5.91797 -3.0625 -11.4141 -8.09375 -14.5234s-11.3164 -3.39062 -16.6094 -0.742188l-26.4961 13.25v-399.051l26.4531 13.2344c2.38281 1.19531 5.01562 1.81641 7.67969 1.81641c9.41406 -0.0273438 17.0391 -7.65234 17.0664 -17.0664v-20.3242
c0 -4.71484 3.82031 -8.53516 8.53516 -8.53516h256c4.71094 0 8.53125 3.82031 8.53125 8.53516v20.3242c-0.0078125 5.92969 3.0625 11.4375 8.10938 14.5508c5.04297 3.11328 11.3438 3.38281 16.6406 0.714844l26.4531 -13.25v399.051zM366.082 369.742z
M238.934 362.668h-8.53516v-34.1328h8.53516c14.1367 0 25.6016 -11.4648 25.6016 -25.6016c0 -14.1406 -11.4648 -25.6016 -25.6016 -25.6016h-8.53516v-40.957c15.8438 -9.16406 25.5977 -26.0742 25.5977 -44.375s-9.75391 -35.2109 -25.5977 -44.375v-40.957h8.53516
c14.1367 0 25.6016 -11.4609 25.6016 -25.6016c0 -14.1367 -11.4648 -25.6016 -25.6016 -25.6016h-8.53516v-34.1328h8.53516c14.1367 0 25.6016 -11.4609 25.6016 -25.5977c0 -14.1406 -11.4648 -25.6016 -25.6016 -25.6016h-68.2656
c-14.1406 0 -25.6016 11.4609 -25.6016 25.6016c0 14.1367 11.4609 25.5977 25.6016 25.5977h8.53125v34.1328h-8.53125c-14.1406 0 -25.6016 11.4648 -25.6016 25.6016c0 14.1406 11.4609 25.6016 25.6016 25.6016h8.53125v40.957
c-15.8398 9.16406 -25.5977 26.0742 -25.5977 44.375s9.75781 35.2109 25.5977 44.375v40.957h-8.53125c-14.1406 0 -25.6016 11.4609 -25.6016 25.6016c0 14.1367 11.4609 25.6016 25.6016 25.6016h8.53125v34.1328h-8.53125c-14.1406 0 -25.6016 11.4609 -25.6016 25.5977
c0 14.1406 11.4609 25.6016 25.6016 25.6016h68.2656c14.1367 0 25.6016 -11.4609 25.6016 -25.6016c0 -14.1367 -11.4648 -25.5977 -25.6016 -25.5977zM230.398 311.465c-9.42578 0 -17.0664 7.64453 -17.0664 17.0703v34.1328c0 9.42578 7.64062 17.0664 17.0664 17.0664
h8.53516c4.71094 0 8.53125 3.82031 8.53125 8.53125c0 4.71484 -3.82031 8.53516 -8.53125 8.53516h-68.2656c-4.71484 0 -8.53516 -3.82031 -8.53516 -8.53516c0 -4.71094 3.82031 -8.53125 8.53516 -8.53125h8.53125c9.42578 0 17.0664 -7.64062 17.0664 -17.0664
v-34.1328c0 -9.42578 -7.64062 -17.0703 -17.0664 -17.0703h-8.53125c-4.71484 0 -8.53516 -3.82031 -8.53516 -8.53125c0 -4.71484 3.82031 -8.53516 8.53516 -8.53516h8.53125c9.42578 0 17.0664 -7.64062 17.0664 -17.0664v-46.1641
c0 -3.375 -1.98828 -6.43359 -5.07422 -7.80078c-12.4688 -5.44922 -20.5234 -17.7617 -20.5234 -31.3672s8.05469 -25.918 20.5234 -31.3672c3.08594 -1.36719 5.07422 -4.42578 5.07422 -7.80078v-46.1641c0 -9.42578 -7.64062 -17.0664 -17.0664 -17.0664h-8.53125
c-4.71484 0 -8.53516 -3.82031 -8.53516 -8.53516c0 -4.71094 3.82031 -8.53125 8.53516 -8.53125h8.53125c9.42578 0 17.0664 -7.64453 17.0664 -17.0703v-34.1328c0 -9.42578 -7.64062 -17.0664 -17.0664 -17.0664h-8.53125
c-4.71484 0 -8.53516 -3.82031 -8.53516 -8.53125c0 -4.71484 3.82031 -8.53516 8.53516 -8.53516h68.2656c4.71094 0 8.53125 3.82031 8.53125 8.53516c0 4.71094 -3.82031 8.53125 -8.53125 8.53125h-8.53516c-9.42578 0 -17.0664 7.64062 -17.0664 17.0664v34.1328
c0 9.42578 7.64062 17.0703 17.0664 17.0703h8.53516c4.71094 0 8.53125 3.82031 8.53125 8.53125c0 4.71484 -3.82031 8.53516 -8.53125 8.53516h-8.53516c-9.42578 0 -17.0664 7.64062 -17.0664 17.0664v46.1641c0.00390625 3.375 1.99219 6.43359 5.07812 7.80078
c12.4648 5.44922 20.5195 17.7617 20.5195 31.3672s-8.05469 25.918 -20.5195 31.3672c-3.08594 1.36719 -5.07422 4.42578 -5.07812 7.80078v46.1641c0 9.42578 7.64062 17.0664 17.0664 17.0664h8.53516c4.71094 0 8.53125 3.82031 8.53125 8.53516
c0 4.71094 -3.82031 8.53125 -8.53125 8.53125h-8.53516zM230.398 311.465zM59.7344 345.602c4.71094 0 8.53125 -3.82031 8.53125 -8.53516v-307.199c0 -4.71484 -3.82031 -8.53516 -8.53125 -8.53516c-4.71484 0 -8.53516 3.82031 -8.53516 8.53516v307.199
c0 4.71484 3.82031 8.53516 8.53516 8.53516zM59.7344 345.602zM349.867 345.602c4.71094 0 8.53125 -3.82031 8.53125 -8.53516v-307.199c0 -4.71484 -3.82031 -8.53516 -8.53125 -8.53516c-4.71484 0 -8.53516 3.82031 -8.53516 8.53516v307.199
c0 4.71484 3.82031 8.53516 8.53516 8.53516zM349.867 345.602z" />
    <glyph glyph-name="011-salon" unicode="&#xf10a;" 
d="M505.316 441.329c8.21484 -8.21387 8.94629 -21.248 1.69824 -30.3193c-53.4131 -66.8477 -109.158 -134.133 -166.663 -201.215l148.242 -148.23c7.08203 -7.08301 10.9834 -16.5 10.9834 -26.5176c0 -10.0166 -3.90137 -19.4336 -10.9844 -26.5166l-15.9014 -15.9023
c-0.00195312 -0.00292969 -0.00488281 -0.00585938 -0.0078125 -0.0078125s-0.00585938 -0.00488281 -0.0078125 -0.00683594l-54.4102 -54.4111c-1.46484 -1.46387 -3.38477 -2.19629 -5.30371 -2.19629s-3.83887 0.732422 -5.30371 2.19629
c-2.92969 2.92871 -2.92969 7.67676 0 10.6064l49.1143 49.1143l-10.7324 10.7324l-49.1143 -49.1143c-1.46484 -1.46387 -3.38477 -2.19629 -5.30371 -2.19629s-3.83887 0.732422 -5.30371 2.19629c-2.92969 2.92871 -2.92969 7.67676 0 10.6074l49.1133 49.1133
l-10.7314 10.7324l-49.1143 -49.1143c-1.46484 -1.46387 -3.38477 -2.19629 -5.30371 -2.19629s-3.83887 0.732422 -5.30469 2.19629c-2.92871 2.92871 -2.92871 7.67676 0 10.6074l49.1143 49.1133l-10.7314 10.7324l-49.1143 -49.1143
c-1.46484 -1.46387 -3.38477 -2.19531 -5.30371 -2.19531s-3.83984 0.731445 -5.30469 2.19531c-2.92871 2.92969 -2.92871 7.67773 0 10.6074l49.1143 49.1143l-10.7334 10.7324l-49.1133 -49.1152c-1.46484 -1.46387 -3.38574 -2.19531 -5.30469 -2.19531
s-3.83887 0.731445 -5.30371 2.19531c-2.92871 2.92969 -2.92871 7.67773 0 10.6074l49.1143 49.1152l-10.7324 10.7314l-49.1133 -49.1133c-1.46582 -1.46484 -3.38574 -2.19629 -5.30469 -2.19629s-3.83887 0.731445 -5.30371 2.19629
c-2.92871 2.92871 -2.92871 7.67676 0 10.6064l49.1143 49.1143l-10.7324 10.7314l-49.1143 -49.1133c-1.46484 -1.46387 -3.38477 -2.19629 -5.30371 -2.19629s-3.83887 0.732422 -5.30371 2.19629c-2.92871 2.92871 -2.92871 7.67676 0 10.6064l49.1143 49.1143
l-10.7334 10.7334l-49.1143 -49.1143c-1.46484 -1.46387 -3.38477 -2.19629 -5.30371 -2.19629s-3.83887 0.732422 -5.30371 2.19629c-2.92969 2.92871 -2.92969 7.67676 0 10.6064l49.1133 49.1143l-11.2998 11.2998
c-26.4033 -30.2764 -53.1299 -60.4805 -80.1494 -90.5479c0 0 -15.3076 -17.4004 -15.3145 -17.4092c12.4102 -12.6807 19.25 -29.4307 19.2305 -47.1807c0.0410156 -37.3477 -30.2734 -67.46 -67.4697 -67.46h-0.0800781c-45.5195 0 -78.2705 44.3994 -64.1982 88.1748
c-14.7646 -4.73242 -31.1084 -4.31641 -46.0283 1.72559c-25.127 10.2061 -42.1123 34.7559 -42.0791 62.5498c-0.0439453 36.8848 29.9297 67.4199 67.4277 67.4199h0.100586c19.709 0 38.3584 -8.55957 51.1787 -23.4795
c3.9248 -2.81055 4.17285 -8.50195 0.660156 -11.6592l-0.0703125 -0.0615234c-0.0400391 -0.0400391 -0.0703125 -0.0703125 -0.109375 -0.0996094c-3.16016 -2.86816 -8.14551 -2.50586 -10.8604 0.839844c-10.0098 12.3496 -24.9004 19.4502 -40.8496 19.46
c-29.2812 -0.0214844 -52.459 -23.7227 -52.4785 -52.4199c0.0332031 -47.2686 57.4697 -70.043 90.085 -36.668c0.0976562 0.0966797 22.5254 22.5244 22.6201 22.6201c9.42871 9.41992 14.6191 22.04 14.6191 35.5293c0 11.5391 -3.99023 22.6992 -11.21 31.4395
c-0.0107422 0 -0.0107422 0.00976562 -0.0107422 0.00976562c-2.2002 2.20117 -3.0459 7.8418 1.39062 11.0508c7.24121 6.53027 14.5811 13.4248 21.3096 19.4092c0 0.0107422 0 0.0107422 0.0107422 0.0107422c22.6514 20.1992 45.5615 40.373 68.5908 60.4287
l-11.1113 11.1104l-49.1152 -49.1143c-1.46387 -1.46484 -3.38379 -2.19629 -5.30273 -2.19629s-3.83887 0.731445 -5.30273 2.19629c-2.92969 2.92871 -2.92969 7.67676 0 10.6064l49.1133 49.1143l-10.7334 10.7344l-49.1143 -49.1143
c-1.46387 -1.46387 -3.38379 -2.19629 -5.30273 -2.19629s-3.83887 0.732422 -5.30273 2.19629c-2.92969 2.92871 -2.92969 7.67676 0 10.6064l49.1133 49.1143l-10.7324 10.7334l-49.1143 -49.1143c-1.46387 -1.46387 -3.38379 -2.19629 -5.30273 -2.19629
s-3.83887 0.732422 -5.30371 2.19629c-2.92871 2.92871 -2.92871 7.67676 0 10.6074l49.1143 49.1133l-10.7324 10.7334l-49.1143 -49.1143c-1.46387 -1.46387 -3.38379 -2.19629 -5.30273 -2.19629s-3.83984 0.732422 -5.30371 2.19629
c-2.92871 2.92871 -2.92871 7.67676 0 10.6074l49.1143 49.1133l-10.7334 10.7334l-49.1133 -49.1143c-1.46387 -1.46387 -3.38379 -2.19531 -5.30371 -2.19531c-1.91895 0 -3.83887 0.731445 -5.30273 2.19531c-2.92871 2.92969 -2.92871 7.67773 0 10.6074
l49.1143 49.1143l-10.7334 10.7324l-49.1143 -49.1152c-1.46484 -1.46387 -3.38477 -2.19531 -5.30371 -2.19531s-3.83887 0.731445 -5.30273 2.19531c-2.92871 2.92969 -2.92871 7.67773 0 10.6074l49.1152 49.1143l-10.7334 10.7324l-49.1152 -49.1133
c-1.46387 -1.46484 -3.38379 -2.19629 -5.30273 -2.19629s-3.83887 0.731445 -5.30273 2.19629c-2.92871 2.92871 -2.92871 7.67676 0 10.6064l49.1143 49.1143l-10.7334 10.7324l-49.1152 -49.1133c-2.92773 -2.92871 -7.67676 -2.92871 -10.6055 0
c-2.92969 2.92871 -2.92969 7.67676 0 10.6064l70.3271 70.3281c14.6201 14.6182 38.4102 14.6201 53.0322 0l148.078 -148.076c12.9688 11.0986 25.9502 22.1357 38.9199 33.0859c53.3389 45.04 107.989 89.9307 162.438 133.421
c4 3.20898 9.04004 4.97852 14.1885 4.97852h0.0302734c5.95703 0 11.793 -2.40527 16.0283 -6.60156c0.0234375 -0.0244141 0.0507812 -0.0458984 0.0761719 -0.0693359zM72.5254 403.377l161.226 -161.228c9.47363 8.21875 18.9668 16.4023 28.4678 24.5645
l-147.268 147.27c-8.77344 8.77148 -23.0479 8.77148 -31.8203 0zM477.984 50.9502l-147.429 147.427c-8.16211 -9.48535 -16.3633 -18.9639 -24.5938 -28.4365c10.6406 -10.6406 156.46 -156.46 161.416 -161.414l10.6064 10.6055
c4.25 4.24902 6.59082 9.89941 6.59082 15.9092s-2.34082 11.6602 -6.59082 15.9092zM208.956 82.7363c165.625 184.585 286.41 337.574 287.022 338.653c-2.14258 -2.14258 -294.475 -294.367 -295.371 -295.39c-2.72754 -3.07227 -7.48438 -3.39648 -10.5908 -0.629883
c-3.08984 2.74023 -3.37988 7.49023 -0.629883 10.5898c1.35059 1.52148 293.975 294.019 295.985 296.03c-2.93164 -1.67969 -158.939 -126.316 -321.553 -271.309l-0.0302734 -0.0400391c-5.93066 -5.28516 -11.0381 -10.0508 -16.9102 -15.4209
c6.83887 -10.4385 10.459 -22.6484 10.4492 -35.2891c0 -17.2988 -6.76074 -33.8828 -19.0195 -46.1406l-22.25 -22.25c-1.15234 -1.63086 -16.166 -14.3428 -16.1992 -38.0801c0 -29.167 23.6445 -52.4219 52.499 -52.46c29.1924 0.0205078 52.4775 23.5557 52.499 52.46
c-0.0126953 15.748 -6.90332 30.5361 -19.4902 40.8115c-1.58984 1.28906 -2.60059 3.20996 -2.75 5.25c-0.160156 2.03906 0.540039 4.08887 1.91016 5.6084c4.92383 5.43848 9.21777 10.4355 14.4199 16.3701c-0.549805 0.400391 -1.08008 0.758789 -1.61035 1.11035
c-10.1396 6.6084 -16.7803 17.4199 -18.21 29.6484h-0.00976562c-0.514648 4.44629 2.93848 8.38086 7.46973 8.38086c3.79004 0 6.98047 -2.84082 7.42969 -6.61914c1.6123 -13.6846 11.3047 -18.5029 14.9395 -21.2852zM94.0264 114.924
c14.6387 -14.6348 14.6367 -38.3887 0 -53.0225c-7.31055 -7.30859 -16.9141 -10.9629 -26.5156 -10.9629c-9.60352 0 -19.2041 3.65234 -26.5146 10.9629c-7.08691 7.08594 -10.9902 16.501 -10.9902 26.5117c-0.00195312 33.1211 40.3633 50.167 64.0205 26.5107z
M83.4209 72.5088c13.9863 13.9844 4.27051 38.3857 -15.9102 38.3877c-20.1221 0 -29.96 -24.3389 -15.9102 -38.3877c8.77344 -8.77051 23.0479 -8.76855 31.8203 0zM152.361 40.9492c20.6768 0 37.498 -16.8193 37.499 -37.4912
c0 -15.4092 -8.89258 -28.665 -23.2051 -34.5947c-4.79004 -1.98438 -9.73633 -2.9541 -14.6035 -2.9541c-9.63379 0 -18.9629 3.7959 -26.2051 11.0361c-10.9023 10.9004 -13.9902 26.5713 -8.05762 40.8955c5.9043 14.2539 19.1514 23.1084 34.5723 23.1084z
M160.913 -17.2803c6.74219 2.79297 13.9463 9.70801 13.9463 20.7383c0 12.4023 -10.0938 22.4922 -22.499 22.4922c-11.043 0 -17.9414 -7.1543 -20.7139 -13.8496c-2.7959 -6.75 -3.00293 -16.7422 4.80469 -24.5488c7.80273 -7.80078 17.752 -7.60938 24.4619 -4.83203z
" />
    <glyph glyph-name="015-barber" unicode="&#xf10e;" 
d="M500.811 310.676c14.9199 -14.9189 14.9199 -39.1934 0.000976562 -54.1123l-84.0869 -84.0879c-7.45996 -7.45117 -17.249 -11.1807 -27.0557 -11.1807c-9.79883 0 -19.5967 3.72852 -27.0566 11.1895l-0.996094 0.995117l-29.543 -29.6133
c-11.2998 -11.2998 -22.8857 -22.5977 -34.457 -33.6113c-0.0546875 -0.0566406 -0.104492 -0.116211 -0.161133 -0.170898c-25.75 -24.6152 -52.5254 -48.7354 -79.5811 -71.6943c-0.109375 -0.0927734 -0.224609 -0.174805 -0.336914 -0.262695
c-35.3398 -30.3115 -72.3271 -59.748 -109.894 -87.4775l-2.33008 -1.75c-11.6592 -8.6543 -25.4941 -12.8965 -39.2871 -12.8965c-17.0791 0 -34.0889 6.51172 -46.7979 19.2207c-22.9609 22.9688 -25.6992 59.96 -6.37695 86.0596l1.81836 2.42383
c28.0557 37.8613 57.8164 75.2285 88.4238 111.042c2.06934 2.43066 4.1582 4.85547 6.24707 7.28125c15.9678 18.5635 32.4492 36.9502 49.2207 54.918c4.89746 5.25098 9.8125 10.4756 14.75 15.6484c10.4209 11.0537 21.7305 22.6777 34.5332 35.4805l29.6221 29.5508
l-0.978516 0.979492c-14.9189 14.9189 -14.9189 39.1934 0 54.1123l84.0869 84.0869c14.9277 14.9189 39.2012 14.9189 54.1123 0l7.00195 -7.00195c0.00195312 -0.00195312 0.00390625 -0.00292969 0.00585938 -0.00488281l112.108 -112.108
c0.0273438 -0.0273438 0.0488281 -0.0566406 0.0761719 -0.0839844zM475.701 311.648l-49.8213 49.8252l-50.2227 50.2188l-43.0127 -43.0127c-0.255859 -0.255859 -0.401367 -0.606445 -0.401367 -0.972656c0 -0.358398 0.154297 -0.717773 0.401367 -0.973633
l98.0928 -98.1025c0.521484 -0.511719 1.43457 -0.511719 1.95508 0zM97.4688 -35.6777c33.8281 24.96 67.1123 51.2959 99.1719 78.4102c-18.9414 9.53027 -36.0547 22.0439 -51 37.333c-15.8672 15.416 -28.7559 33.2979 -38.3682 53.2021
c-27.2559 -32.334 -53.7666 -65.8291 -78.9121 -99.7598l-1.81836 -2.43262c-14.3125 -19.3145 -12.2725 -46.7549 4.75391 -63.791c17.0361 -17.0195 44.459 -19.0498 63.8252 -4.71973zM320.004 155.909l29.5586 29.626l-100.015 100.015l-29.6338 -29.5576
c-12.6279 -12.6279 -23.7803 -24.0938 -34.1016 -35.0254c-0.0507812 -0.0566406 -0.0957031 -0.118164 -0.149414 -0.173828c-4.42285 -4.62695 -8.82324 -9.29688 -13.21 -13.9873c-1.41602 -1.51465 -2.83691 -3.02441 -4.24805 -4.5459
c-0.637695 -0.685547 -1.27148 -1.37793 -1.90723 -2.06445c-2.36328 -2.55371 -4.72461 -5.10938 -7.07422 -7.67773c-0.250977 -0.274414 -0.500977 -0.550781 -0.751953 -0.825195c-2.66602 -2.91797 -5.32617 -5.84375 -7.97363 -8.77832
c-0.258789 -0.285156 -0.513672 -0.571289 -0.770508 -0.856445c-2.57324 -2.85449 -5.1377 -5.7168 -7.69141 -8.58594c-0.512695 -0.577148 -1.02246 -1.1543 -1.53418 -1.73145c-2.21973 -2.5 -4.43262 -5.00391 -6.63574 -7.51465
c-0.953125 -1.08691 -1.90137 -2.1748 -2.85156 -3.2627c-1.6709 -1.91211 -3.33789 -3.82617 -4.99805 -5.74219c-1.54199 -1.78125 -3.07812 -3.56348 -4.61035 -5.34766c-0.644531 -0.75 -1.28809 -1.5 -1.93066 -2.25098
c9.00391 -20.9082 21.8398 -39.5469 38.2246 -55.4717c15.4639 -15.8125 33.2803 -28.2979 53.1641 -37.3018c1.46094 1.25 2.9209 2.49707 4.37988 3.75293c0.688477 0.59082 1.37695 1.18164 2.06445 1.77539c23.1562 20 46.0879 40.8086 68.3301 62.0127
c0.00976562 0.00878906 0.0195312 0.0185547 0.0283203 0.0273438l0.000976562 0.000976562c11.5479 10.9756 23.0869 22.2324 34.3359 33.4912zM488.751 268.632c8.26172 8.2627 8.26172 21.7041 0.000976562 29.9736l-0.981445 0.980469l-43.0088 -43.0156
c-3.44043 -3.43945 -8.19336 -5.41113 -13.0498 -5.41113c-4.85742 0 -9.61133 1.96289 -13.042 5.40332l-98.0938 98.1025c-3.4834 3.48242 -5.40332 8.11621 -5.40332 13.042c0 4.93359 1.92188 9.56738 5.40332 13.042l43.0127 43.0117l-0.977539 0.977539
c-4.13086 4.13086 -9.55859 6.1875 -14.9785 6.1875c-5.42969 0 -10.8486 -2.06445 -14.9883 -6.19629l-84.0879 -84.0869c-8.26172 -8.26172 -8.26172 -21.7051 0 -29.9756l6.6748 -6.67383c0.119141 -0.107422 0.243164 -0.208984 0.358398 -0.325195l112.066 -112.065
c0.0888672 -0.0888672 0.166016 -0.18457 0.250977 -0.276367l6.78125 -6.78125c8.26953 -8.26953 21.7051 -8.26953 29.9756 0zM304.615 310.676l35.0273 -35.0361c3.33691 -3.33789 3.33691 -8.73242 0 -12.0693c-1.66406 -1.66504 -3.84961 -2.50098 -6.03418 -2.50098
c-2.18555 0 -4.37012 0.836914 -6.03418 2.50098l-35.0283 35.0361c-3.33691 3.33789 -3.33691 8.73242 0 12.0693c3.33789 3.33691 8.73242 3.33691 12.0693 0zM367.673 247.618l7.00586 -7.00684c3.33691 -3.33691 3.33691 -8.74023 0 -12.0771
c-1.66406 -1.66406 -3.84961 -2.49219 -6.03418 -2.49219c-2.18555 0 -4.37012 0.835938 -6.03418 2.49219l-7.00684 7.00684c-3.33691 3.33691 -3.33691 8.74023 0 12.0771c3.33789 3.33691 8.73145 3.3291 12.0693 0zM243.35 219.427
c13.6055 3.40625 25.4092 0.973633 33.2275 -6.84375c15.166 -15.167 9.02051 -45.0908 -14.0146 -68.127c-14.502 -14.5186 -31.752 -22.3281 -46.3203 -22.3281c-8.55273 0 -16.1826 2.69727 -21.7988 8.3125c-7.81738 7.81836 -10.251 19.6221 -6.84473 33.2354
c3.02246 12.0684 10.4297 24.4609 20.8604 34.8916c10.4375 10.4385 22.8311 17.8467 34.8906 20.8594zM250.494 156.523c17.0869 17.0967 21.0986 36.9053 14.0137 43.9883c-2.19336 2.19434 -5.59863 3.3125 -9.77246 3.3125
c-2.21973 0 -4.66016 -0.31543 -7.24609 -0.963867c-8.97949 -2.24414 -18.8115 -8.20996 -26.9717 -16.3701c-8.15918 -8.15918 -14.125 -17.9834 -16.3701 -26.9619c-1.85938 -7.45117 -1.00684 -13.665 2.35645 -17.0195
c7.09277 -7.0752 26.9033 -3.07227 43.9902 14.0146z" />
    <glyph glyph-name="001-scissors" unicode="&#xf100;" 
d="M392.853 446.171c6.97461 -3.69531 9.94922 -11.7109 7.07324 -19.0615c-0.0966797 -0.24707 -0.206055 -0.490234 -0.325195 -0.727539l-126.564 -250.748l56.1172 -75.1621c2.78711 -3.73438 2.02051 -9.02051 -1.71289 -11.8076
c-1.51367 -1.13086 -3.28418 -1.67676 -5.04004 -1.67676c-2.57324 0 -5.10938 1.1709 -6.7666 3.38965l-242.786 325.181l34.7188 -67.8936c2.12109 -4.14844 0.477539 -9.23047 -3.66992 -11.3516c-4.14746 -2.12012 -9.22949 -0.478516 -11.3516 3.66992l-43.71 85.4775
c-0.121094 0.238281 -0.229492 0.480469 -0.328125 0.726562c-2.91406 7.33496 0.0205078 15.3682 6.97559 19.0996c6.90234 3.70312 15.1465 1.76074 19.6699 -4.6123l149.594 -200.364l148.459 201.146c4.48828 6.39648 12.7227 8.38379 19.6475 4.71582zM261.759 190.735
l113.869 225.593l-140.339 -190.142zM393.618 35.0771c11.5439 -16.6396 7.40039 -39.5684 -9.23926 -51.1133c-6.36914 -4.41895 -13.6621 -6.53906 -20.8838 -6.53906c-11.6436 0 -23.1035 5.50977 -30.2285 15.7783c-11.5439 16.6377 -7.40039 39.5674 9.23828 51.1133
c8.05957 5.59375 17.8154 7.71387 27.4697 5.9668c9.65332 -1.74609 18.0508 -7.14453 23.6436 -15.2061zM374.763 -2.17578c8.99512 6.24121 11.2363 18.6377 4.99414 27.6328c-3.02344 4.35938 -7.56348 7.27734 -12.7832 8.2207
c-1.19141 0.21582 -2.38574 0.322266 -3.57324 0.322266c-4.00781 0 -7.91504 -1.21387 -11.2773 -3.54688c-8.99609 -6.24121 -11.2363 -18.6377 -4.99414 -27.6348c6.24023 -8.99512 18.6357 -11.2363 27.6338 -4.99414zM123.416 20.1357
c1.79492 -9.64453 -0.271484 -19.4102 -5.82227 -27.5c-5.5498 -8.08984 -13.918 -13.5322 -23.5625 -15.3291c-2.2666 -0.422852 -4.54297 -0.630859 -6.7998 -0.630859c-7.3457 0 -14.5146 2.20801 -20.7012 6.45312c-16.7012 11.457 -20.9648 34.3643 -9.50781 51.0645
c5.55078 8.08984 13.9189 13.5332 23.5635 15.3291c9.64746 1.7959 19.4121 -0.273438 27.501 -5.82227c8.08984 -5.55078 13.5332 -13.9189 15.3291 -23.5645zM103.682 2.17969c3.00195 4.37305 4.11816 9.6543 3.14746 14.8672
c-0.970703 5.21387 -3.91406 9.73926 -8.28809 12.7402c-3.42578 2.35156 -7.33496 3.47754 -11.2051 3.47754c-6.33008 0 -12.5586 -3.01367 -16.4014 -8.61719c-6.19434 -9.02832 -3.88867 -21.4131 5.13965 -27.6074c4.37305 -3.00098 9.6543 -4.11914 14.8682 -3.14746
c5.21387 0.970703 9.73926 3.91309 12.7393 8.28711zM486.315 -24.9316c4.34277 -5.7002 5.93945 -12.9824 4.38086 -19.9824c-2.4668 -11.0742 -12.4512 -19.0879 -23.75 -19.0879h-0.0253906c-42.5322 0.0439453 -62.9512 11.835 -71.7715 19.5596
c-9.74805 -5.30078 -20.5459 -8.04492 -31.5664 -8.04492c-3.98145 0 -7.98828 0.358398 -11.9883 1.08008c-17.5078 3.16504 -32.7354 12.959 -42.8779 27.5762c-15.7529 22.7051 -15.6699 52.6406 -0.46875 75.167l-83.29 94.7334l-82.6543 -95.165
c15.3203 -22.4482 15.5625 -52.3838 -0.0712891 -75.1729c-12.8945 -18.7939 -33.7881 -28.9033 -55.0225 -28.9043c-12.9834 -0.000976562 -26.0928 3.77832 -37.585 11.6631c-30.2861 20.7793 -38.0195 62.3223 -17.2422 92.6074
c16.1807 23.583 45.1895 33.9756 72.3203 26.5674l72.0605 97.6309l-68.7832 134.508c-2.12109 4.14844 -0.478516 9.23047 3.66992 11.3506c4.14551 2.12012 9.22949 0.478516 11.3506 -3.66992l78.8203 -154.138l18.4326 1.0293
c1.26953 0.379883 2.6123 0.454102 3.91895 0.219727l2.53613 0.141602c2.59277 0.141602 5.09668 -0.90625 6.80664 -2.85156l91.9453 -104.576c2.76367 -3.14355 2.80371 -7.83887 0.09375 -11.0303c-14.5654 -17.1514 -15.79 -42.0264 -2.97754 -60.4922
c7.57422 -10.915 18.9434 -18.2266 32.0176 -20.5898s26.2842 0.505859 37.2002 8.08008c6.09473 4.22852 11.0635 9.64453 14.6777 15.877c0.225586 0.527344 0.496094 1.01953 0.811523 1.47656c2.4248 4.53223 4.16211 9.45898 5.10156 14.6631
c2.36328 13.0742 -0.506836 26.2842 -8.08008 37.2002c-13.0986 18.8779 -37.2344 26.29 -58.6934 18.0215c-4.3457 -1.67383 -9.22852 0.490234 -10.9033 4.83887c-1.67676 4.34668 0.491211 9.22852 4.83887 10.9033c28.7402 11.0732 61.0713 1.14551 78.6191 -24.1455
c10.1426 -14.6191 13.9863 -32.3115 10.8213 -49.8193c-0.702148 -3.87695 -1.74512 -7.63477 -3.07715 -11.2588c15.3311 -4.22168 30.9385 -5.80566 42.1084 -6.35742c7.24707 -0.357422 13.9141 -3.85938 18.2959 -9.6084zM125.059 56.7773l77.9395 89.7363
l-5.71582 -0.319336c-3.33008 -0.18457 -6.46094 1.60938 -7.98047 4.58203l-3.95605 7.73633l-70.6738 -95.7549c-2.24707 -3.04199 -6.24121 -4.21777 -9.77832 -2.87793c-21.502 8.1543 -45.5977 0.619141 -58.5977 -18.3291
c-15.5146 -22.6123 -9.73926 -53.6348 12.875 -69.1494c22.6133 -15.5166 53.6348 -9.73926 69.1504 12.874c12.7158 18.5342 11.3604 43.4004 -3.29395 60.4756c-2.72656 3.1748 -2.71191 7.86816 0.03125 11.0264zM474.223 -41.2666
c0.65625 2.94336 -0.549805 5.08984 -1.32715 6.11035c-1.3584 1.78418 -3.43945 2.87109 -5.70703 2.9834c-12.8965 0.636719 -31.3203 2.5625 -49.2627 7.95215c-2.49609 -3.54102 -5.34375 -6.83887 -8.51855 -9.85352
c7.81543 -5.34766 24.7363 -13.0195 57.5303 -13.0537h0.00878906c3.45996 0 6.51953 2.46289 7.27637 5.86133z" />
  </font>
</defs></svg>
